<?xml version="1.0" encoding="utf-8"?>
<!-- Generator: Adobe Illustrator 19.2.0, SVG Export Plug-In . SVG Version: 6.00 Build 0)  -->
<svg version="1.1" id="Слой_1" xmlns="http://www.w3.org/2000/svg" xmlns:xlink="http://www.w3.org/1999/xlink" x="0px" y="0px"
	 viewBox="0 0 4.6 7.6" style="enable-background:new 0 0 4.6 7.6;" xml:space="preserve">
<style type="text/css">
	.st0{fill:#464646;}
</style>
<g transform="translate(2188 3645) rotate(-90)">
	<path class="st0" d="M3645-2187.2c0,0.2-0.1,0.4-0.2,0.5l-3,3c-0.3,0.3-0.8,0.3-1.1,0l-3-3c-0.3-0.3-0.3-0.8,0-1.1s0.8-0.3,1.1,0
		l0,0l2.4,2.5l2.5-2.5c0.3-0.3,0.8-0.3,1.1,0C3644.9-2187.6,3645-2187.4,3645-2187.2z"/>
</g>
</svg>
