<?xml version="1.0" encoding="utf-8"?>
<!-- Generator: Adobe Illustrator 19.2.0, SVG Export Plug-In . SVG Version: 6.00 Build 0)  -->
<svg version="1.1" id="Layer_1" xmlns="http://www.w3.org/2000/svg" xmlns:xlink="http://www.w3.org/1999/xlink" x="0px" y="0px"
	 viewBox="0 0 500 500" style="enable-background:new 0 0 500 500;" xml:space="preserve">
<style type="text/css">
	.st0{fill:#DA0260;}
</style>
<g transform="translate(0.000000,675.000000) scale(0.100000,-0.100000)">
	<path class="st0" d="M3843.1,5497l-3-187l-1345-3c-1170-2-1349-4-1376-17c-18-8-45-15-62-15c-16,0-46-7-65-15c-20-8-47-15-60-15
		c-14,0-30-7-37-15s-21-15-32-15c-16,0-59-21-173-84c-111-62-322-259-388-362c-71-111-127-219-127-242c0-11-7-25-15-32s-15-23-15-35
		s-7-39-15-58c-8-20-15-51-15-69c-1-18-7-44-15-58c-21-36-21-424,0-460c8-14,15-41,15-60s7-46,15-60s14-39,15-56c0-17,7-37,15-44
		s15-18,15-25c0-17,69-153,81-161c5-3,9-13,9-23c0-9,14-30,30-46c17-16,30-35,30-43c0-18,252-272,270-272c7,0,29-13,50-30
		c21-16,42-30,48-30c5,0,15-7,22-15s20-15,30-15s23-7,30-15s20-15,30-15s23-7,30-15s22-15,34-15s31-7,42-15c10-8,31-15,45-15
		s34-7,45-15c10-8,37-15,58-15c22,0,67-7,100-15c53-13,255-15,1606-13l1545,3v255v255l-1535,6c-844,4-1560,10-1590,14s-64,13-75,21
		s-30,14-42,14c-13,0-23,4-23,10c0,5-12,13-27,16c-32,8-114,60-126,80c-4,8-14,14-20,14c-31,0-161,159-201,245c-10,22-25,53-32,68
		c-8,16-14,39-14,52c0,12-7,39-15,58c-21,50-21,251,0,300c8,20,15,49,15,65s7,35,15,42s15,23,15,35s7,28,15,35s15,20,15,30
		c0,9,13,30,30,46c16,16,30,36,30,45c0,18,136,149,154,149c7,0,20,8,30,18c15,18,77,51,159,86c21,9,52,16,70,16s53,6,78,14
		c38,12,261,14,1314,15c944,1,1271-1,1281-10c11-9,14-50,14-190c0-164,5-201,25-169c3,6,15,10,26,10s22,7,25,15c4,8,12,15,19,15
		c6,0,31,14,53,30c23,17,48,30,56,30c7,0,19,7,26,15s16,15,21,15c4,0,28,14,52,30c25,17,49,30,55,30c5,0,15,7,22,15s21,15,32,15
		c10,0,21,7,24,15c4,8,12,15,19,15c6,0,31,14,53,30c23,17,48,30,56,30c7,0,19,7,26,15s16,15,21,15c4,0,28,14,52,30
		c25,17,49,30,55,30c5,0,15,7,22,15s21,15,32,15c10,0,21,7,24,15c4,8,12,15,19,15c6,0,31,14,53,30c23,17,48,30,56,30c7,0,19,7,26,15
		s16,15,21,15c4,0,25,12,46,26s48,30,61,35c26,10,21,29-8,29c-10,0-22,5-25,11c-4,5-17,14-28,20c-23,9-31,14-105,62
		c-24,15-47,27-53,27c-5,0-28,14-51,30c-22,17-47,30-55,30c-7,0-13,4-13,9s-12,14-27,20c-16,6-41,20-58,31c-16,11-39,24-50,30
		c-42,23-67,38-78,49c-6,6-17,11-25,11c-7,0-28,11-45,24c-18,14-43,30-57,35c-14,6-38,20-55,31c-16,11-39,24-50,30
		c-21,11-34,18-103,63c-24,15-48,27-53,27c-6,0-25,11-42,24c-18,13-47,30-64,39l-33,15L3843.1,5497z"/>
</g>
</svg>
