<?xml version="1.0" encoding="UTF-8" standalone="no"?>
<!-- Generator: Adobe Illustrator 19.2.0, SVG Export Plug-In . SVG Version: 6.00 Build 0)  -->

<svg
   xmlns:dc="http://purl.org/dc/elements/1.1/"
   xmlns:cc="http://creativecommons.org/ns#"
   xmlns:rdf="http://www.w3.org/1999/02/22-rdf-syntax-ns#"
   xmlns:svg="http://www.w3.org/2000/svg"
   xmlns="http://www.w3.org/2000/svg"
   xmlns:sodipodi="http://sodipodi.sourceforge.net/DTD/sodipodi-0.dtd"
   xmlns:inkscape="http://www.inkscape.org/namespaces/inkscape"
   version="1.1"
   id="Слой_1"
   x="0px"
   y="0px"
   viewBox="0 0 9.1999999 7.6"
   xml:space="preserve"
   inkscape:version="0.91 r13725"
   sodipodi:docname="arrow_left2.svg"
   width="9.1999998"
   height="7.5999999"><metadata
     id="metadata13"><rdf:RDF><cc:Work
         rdf:about=""><dc:format>image/svg+xml</dc:format><dc:type
           rdf:resource="http://purl.org/dc/dcmitype/StillImage" /><dc:title></dc:title></cc:Work></rdf:RDF></metadata><defs
     id="defs11" /><sodipodi:namedview
     pagecolor="#ffffff"
     bordercolor="#666666"
     borderopacity="1"
     objecttolerance="10"
     gridtolerance="10"
     guidetolerance="10"
     inkscape:pageopacity="0"
     inkscape:pageshadow="2"
     inkscape:window-width="1920"
     inkscape:window-height="1017"
     id="namedview9"
     showgrid="false"
     inkscape:zoom="31.052632"
     inkscape:cx="2.3"
     inkscape:cy="3.8"
     inkscape:window-x="-8"
     inkscape:window-y="-8"
     inkscape:window-maximized="1"
     inkscape:current-layer="Слой_1" /><style
     type="text/css"
     id="style3">
	.st0{fill:#464646;}
</style><g
     transform="matrix(0,-1,1,0,2188,3645)"
     id="g5"><path
       class="st0"
       d="m 3637.4,-2184.3 c 0,-0.2 0.1,-0.4 0.2,-0.5 l 3,-3 c 0.3,-0.3 0.8,-0.3 1.1,0 l 3,3 c 0.3,0.3 0.3,0.8 0,1.1 -0.3,0.3 -0.8,0.3 -1.1,0 l 0,0 -2.4,-2.5 -2.5,2.5 c -0.3,0.3 -0.8,0.3 -1.1,0 -0.1,-0.2 -0.2,-0.4 -0.2,-0.6 z"
       id="path7"
       inkscape:connector-curvature="0"
       style="fill:#464646" /></g><g
     transform="matrix(0,-1,1,0,2192.7059,3644.9625)"
     id="g5-1"><path
       class="st0"
       d="m 3637.4,-2184.3 c 0,-0.2 0.1,-0.4 0.2,-0.5 l 3,-3 c 0.3,-0.3 0.8,-0.3 1.1,0 l 3,3 c 0.3,0.3 0.3,0.8 0,1.1 -0.3,0.3 -0.8,0.3 -1.1,0 l 0,0 -2.4,-2.5 -2.5,2.5 c -0.3,0.3 -0.8,0.3 -1.1,0 -0.1,-0.2 -0.2,-0.4 -0.2,-0.6 z"
       id="path7-7"
       inkscape:connector-curvature="0"
       style="fill:#464646" /></g></svg>