<svg xmlns="http://www.w3.org/2000/svg" viewBox="215 268 30 30">
  <defs>
    <style>
      .cls-1 {
        fill: #009982;
        stroke: #009982;
      }

      .cls-1, .cls-2 {
        stroke-width: 2px;
      }

      .cls-2 {
        fill: none;
        stroke: #fff;
        stroke-linecap: round;
        stroke-linejoin: round;
        stroke-miterlimit: 10;
      }
    </style>
  </defs>
  <g id="Group_1" data-name="Group 1" transform="translate(-109 232)">
    <path id="Path_2510" data-name="Path 2510" class="cls-1" d="M14,0A14,14,0,1,1,0,14,14,14,0,0,1,14,0Z" transform="translate(325 37)"/>
    <path id="Path_2511" data-name="Path 2511" class="cls-2" d="M.842,11.834l3.957,4.2L15.153,5.3" transform="translate(330.785 40.566)"/>
  </g>
</svg>
