<svg xmlns="http://www.w3.org/2000/svg" viewBox="116 273 18 20.001">
  <defs>
    <style>
      .cls-1 {
        fill: #fff;
      }

      .cls-2, .cls-3 {
        fill: none;
        stroke: #0096c8;
        stroke-linecap: round;
        stroke-width: 2px;
      }

      .cls-3 {
        stroke-linejoin: round;
        stroke-miterlimit: 10;
      }
    </style>
  </defs>
  <g id="Group_1" data-name="Group 1" transform="translate(-603.5 130)">
    <rect id="rectangle-1" class="cls-1" width="18" height="20" transform="translate(719.5 143)"/>
    <g id="Group_252" data-name="Group 252" transform="translate(718.5 142.801)">
      <g id="Group_250" data-name="Group 250" transform="translate(0.4 0.199)">
        <path id="Path_246" data-name="Path 246" class="cls-2" d="M8,0H-3" transform="translate(9.6 4.699)"/>
        <path id="Path_247" data-name="Path 247" class="cls-3" d="M4.6,9.7a4.951,4.951,0,0,1,5-5" transform="translate(-3)"/>
        <path id="Path_248" data-name="Path 248" class="cls-3" d="M14,1l3.6,3.7L14,8.3"/>
      </g>
      <g id="Group_251" data-name="Group 251" transform="translate(-0.6)">
        <path id="Path_249" data-name="Path 249" class="cls-2" d="M0,0H11" transform="translate(2.6 15.5)"/>
        <path id="Path_250" data-name="Path 250" class="cls-3" d="M17.6,10.5a4.951,4.951,0,0,1-5,5" transform="translate(1)"/>
        <path id="Path_251" data-name="Path 251" class="cls-3" d="M6.2,19.2,2.6,15.5l3.6-3.6"/>
      </g>
    </g>
  </g>
</svg>
