<?xml version="1.0" encoding="utf-8"?>
<!-- Generator: Adobe Illustrator 19.2.0, SVG Export Plug-In . SVG Version: 6.00 Build 0)  -->
<svg version="1.1" id="Layer_1" xmlns="http://www.w3.org/2000/svg" xmlns:xlink="http://www.w3.org/1999/xlink" x="0px" y="0px"
	 viewBox="0 0 6 18" style="enable-background:new 0 0 6 18;" xml:space="preserve">
<style type="text/css">
	.st0{fill:#954098;stroke:#797979;stroke-miterlimit:10;}
</style>
<line class="st0" x1="0" y1="17.6" x2="6" y2="17.6"/>
</svg>
