<svg xmlns="http://www.w3.org/2000/svg" viewBox="0 0 24 24">
  <defs>
    <style>
      .cls-1 {
        fill: #fff;
      }

      .cls-1, .cls-2 {
        stroke: #464646;
      }

      .cls-2, .cls-4 {
        fill: none;
      }

      .cls-2 {
        stroke-linecap: round;
        stroke-linejoin: round;
        stroke-miterlimit: 10;
        stroke-width: 1.5px;
      }

      .cls-3 {
        stroke: none;
      }
    </style>
  </defs>
  <g id="Group_32314" data-name="Group 32314" transform="translate(-911 2720)">
    <g id="Ellipse_793" data-name="Ellipse 793" class="cls-1" transform="translate(911 -2696) rotate(-90)">
      <circle class="cls-3" cx="12" cy="12" r="12"/>
      <circle class="cls-4" cx="12" cy="12" r="11.5"/>
    </g>
    <g id="Group_6271" data-name="Group 6271" transform="translate(915.2 -2702) rotate(-90)">
      <g id="Group_6270" data-name="Group 6270">
        <path id="Path_5033" data-name="Path 5033" class="cls-2" d="M11,9.6l-5.1,5L.8,9.6"/>
        <line id="Line_499" data-name="Line 499" class="cls-2" y2="13.8" transform="translate(5.9 0.8)"/>
      </g>
    </g>
  </g>
</svg>
