<svg xmlns="http://www.w3.org/2000/svg" viewBox="119 274 12 18">
  <defs>
    <style>
      .cls-1, .cls-4 {
        fill: #f0f0f0;
      }

      .cls-1 {
        opacity: 0;
      }

      .cls-2 {
        fill: #fff;
      }

      .cls-3 {
        fill: #0096c8;
      }

      .cls-3, .cls-4, .cls-5 {
        stroke: #464646;
        stroke-miterlimit: 10;
        stroke-width: 1.5px;
      }

      .cls-3, .cls-5 {
        stroke-linecap: round;
        stroke-linejoin: round;
      }

      .cls-5 {
        fill: none;
      }
    </style>
  </defs>
  <g id="Group_1" data-name="Group 1" transform="translate(-332 114)">
    <rect id="rectangle-1" class="cls-1" width="12" height="18" transform="translate(451 160)"/>
    <ellipse id="Ellipse_112" data-name="Ellipse 112" class="cls-2" cx="4.8" cy="2.5" rx="4.8" ry="2.5" transform="translate(452.4 172.25)"/>
    <path id="Path_387" data-name="Path 387" class="cls-3" d="M15.81,7.35c0,3.627-5.26,8.25-5.26,8.25S5.31,10.977,5.31,7.35A5.323,5.323,0,0,1,10.55,2.1,5.34,5.34,0,0,1,15.81,7.35Z" transform="translate(446.44 158.65)"/>
    <circle id="Ellipse_113" data-name="Ellipse 113" class="cls-4" cx="1.75" cy="1.75" r="1.75" transform="translate(455.249 164.251)"/>
    <path id="Path_388" data-name="Path 388" class="cls-5" d="M12.317,13.5c1.207.435,1.983,1.043,1.983,1.739,0,1.217-2.241,2.261-5,2.261s-5-1.043-5-2.261c0-.7.776-1.391,1.983-1.739" transform="translate(447.699 159.75)"/>
  </g>
</svg>
