<?xml version="1.0" encoding="utf-8"?>
<!-- Generator: Adobe Illustrator 19.2.1, SVG Export Plug-In . SVG Version: 6.00 Build 0)  -->
<svg version="1.1" id="Слой_1" xmlns="http://www.w3.org/2000/svg" xmlns:xlink="http://www.w3.org/1999/xlink" x="0px" y="0px"
	 viewBox="0 0 25 25" style="enable-background:new 0 0 25 25;" xml:space="preserve">
<style type="text/css">
	.st0{fill:#00AFF0;}
	.st1{fill:#464646;}
</style>
<g transform="translate(1174 635) rotate(-90)">
	<circle class="st0" cx="622.5" cy="-1161.5" r="12.5"/>
	<circle class="st1" cx="622.5" cy="-1161.5" r="1.5"/>
	<circle class="st1" cx="622.5" cy="-1155.9" r="1.5"/>
	<circle class="st1" cx="622.5" cy="-1167.1" r="1.5"/>
</g>
</svg>
