<svg xmlns="http://www.w3.org/2000/svg" viewBox="-17853 -21230 20 20.018">
  <defs>
    <style>
      .cls-1 {
        fill: #f0f0f0;
        opacity: 0;
      }

      .cls-2 {
        fill: #da0260;
        stroke: #da0260;
        stroke-linecap: round;
        stroke-linejoin: round;
        stroke-miterlimit: 10;
        stroke-width: 2px;
      }
    </style>
  </defs>
  <g id="Group_13445" data-name="Group 13445" transform="translate(-18657 -21349)">
    <rect id="rectangle-1" class="cls-1" width="20" height="20" transform="translate(804 119)"/>
    <path id="Path_8830" data-name="Path 8830" class="cls-2" d="M318.1,436.709v18l-8.983-7.322-9.017,7.322v-18Z" transform="translate(368.291 438.117) rotate(-90)"/>
  </g>
</svg>
