<svg xmlns="http://www.w3.org/2000/svg" viewBox="-17357.5 6432 20 20">
  <defs>
    <style>
      .cls-1 {
        fill: #464646;
      }
    </style>
  </defs>
  <g id="group-445" transform="translate(-17357.5 6432)">
    <g id="group">
      <path id="path" class="cls-1" d="M10,1.5A8.5,8.5,0,1,1,1.5,10,8.493,8.493,0,0,1,10,1.5M10,0A10,10,0,1,0,20,10,10.029,10.029,0,0,0,10,0Z"/>
    </g>
    <g id="group-2" data-name="group">
      <path id="path-2" data-name="path" class="cls-1" d="M6,9.1v3.6H4.8V7.3H6l2.5,3.5V7.3H9.6v5.3H8.5Z"/>
      <path id="path-3" data-name="path" class="cls-1" d="M13,10.7h-.8v1.9H11.1V7.3h2.5a1.688,1.688,0,0,1,.6,3.3l1.2,2H14.1Zm.4-2.4H12.2V9.8h1.2a.713.713,0,0,0,.8-.7A.789.789,0,0,0,13.4,8.3Z"/>
    </g>
  </g>
</svg>
