<svg xmlns="http://www.w3.org/2000/svg" viewBox="-16509 652 20 20">
  <defs>
    <style>
      @font-face {
        font-family: 'Proxima-Nova-Regular';
        src: url("../Content/fonts/proxima-nova/ProximaNova-Regular/ProximaNova-Regular.eot");
        src: url("../Content/fonts/proxima-nova/ProximaNova-Regular/ProximaNova-Regular.eot?#iefix")format("embedded-opentype"),
        url("../Content/fonts/proxima-nova/ProximaNova-Regular/ProximaNova-Regular.woff") format("woff"),
        url("../Content/fonts/proxima-nova/ProximaNova-Regular/ProximaNova-Regular.ttf") format("truetype");
        font-style: normal;
        font-weight: normal;
      }
      .cls-1 {
        fill: #00aff0;
      }

      .cls-2 {
        fill: #464646;
        font-size: 8px;
        font-family: 'Proxima-Nova-Regular';
        font-weight: 700;
      }
      tspan {
        font-family: 'Proxima-Nova-Regular';
      }
    </style>
  </defs>
  <g id="group-94" transform="translate(-16589 47)">
    <path id="ellipse-2" class="cls-1" d="M10,0A10,10,0,1,1,0,10,10,10,0,0,1,10,0Z" transform="translate(80 605)"/>
    <text id="John_Smith" data-name="John Smith" class="cls-2" transform="translate(84.5 610)"><tspan x="0" y="8">NR</tspan></text>
  </g>
</svg>
