<?xml version="1.0" encoding="utf-8"?>
<!-- Generator: Adobe Illustrator 19.2.1, SVG Export Plug-In . SVG Version: 6.00 Build 0)  -->
<svg version="1.1" id="Слой_1" xmlns="http://www.w3.org/2000/svg" xmlns:xlink="http://www.w3.org/1999/xlink" x="0px" y="0px"
	 viewBox="0 0 10 10" style="enable-background:new 0 0 10 10;" xml:space="preserve">
<style type="text/css">
	.st0{fill:#00AFF0;}
	.st1{fill:#FFFFFF;}
</style>
<g transform="translate(1045 1068)">
	<path class="st0" d="M-1044-1068h8c0.6,0,1,0.4,1,1v8c0,0.6-0.4,1-1,1h-8c-0.6,0-1-0.4-1-1v-8C-1045-1067.6-1044.6-1068-1044-1068z
		"/>
	<g transform="translate(0.875 2.05)">
		<path class="st1" d="M-1042-1062.1c-0.2,0-0.4-0.1-0.5-0.2l-2.3-2.3c-0.3-0.3-0.3-0.8,0-1.1c0.3-0.3,0.8-0.3,1.1,0c0,0,0,0,0,0
			l1.7,1.7l3.9-3.9c0.3-0.2,0.8-0.2,1.1,0c0.3,0.3,0.3,0.8,0,1.1l-4.5,4.5C-1041.6-1062.1-1041.8-1062.1-1042-1062.1z"/>
	</g>
</g>
</svg>
