<?xml version="1.0" encoding="utf-8"?>
<!-- Generator: Adobe Illustrator 19.2.1, SVG Export Plug-In . SVG Version: 6.00 Build 0)  -->
<svg version="1.1" id="Слой_1" xmlns="http://www.w3.org/2000/svg" xmlns:xlink="http://www.w3.org/1999/xlink" x="0px" y="0px"
	 viewBox="0 0 10 10" style="enable-background:new 0 0 10 10;" xml:space="preserve">
<style type="text/css">
	.st0{fill:#B4B4B4;}
	.st1{fill:#FFFFFF;}
</style>
<g transform="translate(925 1774)">
	<path class="st0" d="M-924-1774h8c0.6,0,1,0.4,1,1v8c0,0.6-0.4,1-1,1h-8c-0.6,0-1-0.4-1-1v-8C-925-1773.6-924.6-1774-924-1774z"/>
	<g transform="translate(0.875 2.05)">
		<path class="st1" d="M-922-1768.1c-0.2,0-0.4-0.1-0.5-0.2l-2.3-2.3c-0.3-0.3-0.3-0.8,0-1.1s0.8-0.3,1.1,0c0,0,0,0,0,0l1.7,1.7
			l3.9-3.9c0.3-0.2,0.8-0.2,1.1,0c0.3,0.3,0.3,0.8,0,1.1l-4.5,4.5C-921.6-1768.1-921.8-1768.1-922-1768.1z"/>
	</g>
</g>
</svg>
