<svg xmlns="http://www.w3.org/2000/svg" viewBox="8151 1396 30 30">
  <defs>
    <style>
      .cls-1, .cls-6 {
        fill: #fff;
      }

      .cls-1, .cls-3, .cls-6 {
        stroke: #b4b4b4;
        stroke-width: 2px;
      }

      .cls-2 {
        fill: #009982;
      }

      .cls-2, .cls-4, .cls-5 {
        opacity: 0;
      }

      .cls-3, .cls-4 {
        fill: none;
      }

      .cls-3, .cls-4, .cls-6 {
        stroke-linecap: round;
        stroke-linejoin: round;
        stroke-miterlimit: 10;
      }

      .cls-4 {
        stroke: #fff;
        stroke-width: 1.5px;
      }

      .cls-5 {
        fill: #0096c8;
      }
    </style>
  </defs>
  <g id="Group_449" data-name="Group 449" transform="translate(6921 1139)">
    <circle id="Ellipse_108" data-name="Ellipse 108" class="cls-1" cx="14" cy="14" r="14" transform="translate(1231 258)"/>
    <g id="Group_448" data-name="Group 448" transform="translate(1145.75 -1)">
      <rect id="rectangle-1" class="cls-2" width="18" height="18" transform="translate(90.25 264)"/>
      <g id="Group_444" data-name="Group 444" transform="translate(94.55 264.75)">
        <g id="Group_443" data-name="Group 443" transform="translate(0 0)">
          <g id="Group_442" data-name="Group 442">
            <g id="Group_441" data-name="Group 441" transform="translate(-0.3 0.25)">
              <path id="Path_230" data-name="Path 230" class="cls-3" d="M.8.8h9.444L12.3,2.96V16.8H.8Z" transform="translate(-0.8 -0.8)"/>
            </g>
            <path id="Path_231" data-name="Path 231" class="cls-3" d="M11.6,1V4h3" transform="translate(-3.899 -0.249)"/>
          </g>
        </g>
        <line id="Line_151" data-name="Line 151" class="cls-4" x2="6.259" transform="translate(2.846 6.259)"/>
        <line id="Line_152" data-name="Line 152" class="cls-4" x2="6.259" transform="translate(2.846 9.389)"/>
        <line id="Line_153" data-name="Line 153" class="cls-4" x2="6.259" transform="translate(2.846 12.518)"/>
      </g>
      <g id="Group_447" data-name="Group 447" transform="translate(22042.5 23001.301)">
        <path id="Path_232" data-name="Path 232" class="cls-5" d="M0,0H12V12H0Z" transform="translate(-21952.201 -22733)"/>
        <g id="Group_446" data-name="Group 446" transform="translate(-21952.5 -22732.398)">
          <rect id="Rectangle_74" data-name="Rectangle 74" class="cls-5" width="12" height="10.8" transform="translate(0)"/>
          <g id="Group_445" data-name="Group 445" transform="translate(1.247 0.75)">
            <line id="Line_154" data-name="Line 154" class="cls-3" x1="6.555" y2="6.358" transform="translate(0 2.992)"/>
            <ellipse id="Ellipse_109" data-name="Ellipse 109" class="cls-6" cx="3.6" cy="3.6" rx="3.6" ry="3.6" transform="translate(2.203 0)"/>
          </g>
        </g>
      </g>
    </g>
  </g>
</svg>
