<svg xmlns="http://www.w3.org/2000/svg" viewBox="22522 5298 16 16">
  <defs>
    <style>
      .cls-1 {
        fill: #464646;
      }

      .cls-2 {
        fill: none;
        stroke: #fff;
        stroke-linecap: round;
        stroke-linejoin: round;
        stroke-miterlimit: 10;
        stroke-width: 1.5px;
      }
    </style>
  </defs>
  <g id="Group_7751" data-name="Group 7751" transform="translate(23453 2598) rotate(180)">
    <circle id="Ellipse_1243" data-name="Ellipse 1243" class="cls-1" cx="8" cy="8" r="8" transform="translate(915 -2700) rotate(-90)"/>
    <g id="Group_7750" data-name="Group 7750" transform="translate(915.2 -2702) rotate(-90)">
      <g id="Group_7749" data-name="Group 7749">
        <path id="Path_5995" data-name="Path 5995" class="cls-2" d="M11,9.6l-5.1,5L.8,9.6"/>
        <line id="Line_758" data-name="Line 758" class="cls-2" y2="13.8" transform="translate(5.9 0.8)"/>
      </g>
    </g>
  </g>
</svg>
