<svg xmlns="http://www.w3.org/2000/svg" viewBox="21913 4855 20 20">
  <defs>
    <style>
      .cls-1 {
        fill: #fff;
      }

      .cls-2 {
        fill: #464646;
      }
    </style>
  </defs>
  <g id="group-99" transform="translate(21913 4855.025)">
    <g id="group" transform="translate(0 11.585)">
      <path id="path" class="cls-1" d="M7.8,13.1l-6,5.993H.8l.1-1L6.8,12.2" transform="translate(0 -11.601)"/>
      <path id="path-2" data-name="path" class="cls-2" d="M0,19.99l.2-2.2L6.3,11.6l2,2L2.2,19.79Z" transform="translate(0 -11.6)"/>
    </g>
    <g id="group-2" data-name="group" transform="translate(2.875 -0.025)">
      <path id="path-3" data-name="path" class="cls-1" d="M12.2,12.485c.8.8-.2,3-1,3.8L3.6,8.79c.8-.8,3-1.8,3.8-1l3.2-3.2c-.8-.8.2-3,1-3.8l7.5,7.491c-.8.8-3,1.8-3.8,1Z" transform="translate(-2.875 0.024)"/>
      <path id="path-4" data-name="path" class="cls-2" d="M11.2,17.079a.764.764,0,0,1-.5-.2L3.1,9.288a.783.783,0,0,1,0-1.1c.7-.7,2.8-1.9,4.2-1.4l2.4-2.4C9.2,3,10.4.9,11.1.2a.785.785,0,0,1,1.1,0L19.7,7.69a.863.863,0,0,1,.3.6.762.762,0,0,1-.2.5c-.7.7-2.8,1.8-4.2,1.4l-2.4,2.4c.5,1.4-.7,3.5-1.4,4.195A.865.865,0,0,1,11.2,17.079ZM4.8,8.789l6.3,6.292c.5-.8.8-1.9.5-2.2a.723.723,0,0,1,0-1l3.2-3.2a.785.785,0,0,1,1.1,0c.2.2,1.3-.1,2.2-.5L11.8,1.9a9.276,9.276,0,0,0-.5,1c-.2.7-.2,1.1-.1,1.2a.783.783,0,0,1,0,1.1L8,8.29a.785.785,0,0,1-1.1,0C6.7,8.09,5.6,8.389,4.8,8.789Z" transform="translate(-2.875 0.025)"/>
    </g>
  </g>
</svg>
