<svg xmlns="http://www.w3.org/2000/svg" viewBox="21915 5209 16 16">
  <defs>
    <style>
      .cls-1 {
        fill: #fff;
      }

      .cls-2 {
        fill: none;
        stroke: #464646;
        stroke-linecap: round;
        stroke-linejoin: round;
        stroke-miterlimit: 10;
        stroke-width: 1.5px;
      }
    </style>
  </defs>
  <g id="Group_7805" data-name="Group 7805" transform="translate(26019 7859.014)">
    <circle id="Ellipse_1245" data-name="Ellipse 1245" class="cls-1" cx="8" cy="8" r="8" transform="translate(-4104 -2634.014) rotate(-90)"/>
    <g id="Group_7804" data-name="Group 7804" transform="translate(-17.975 -34.25)">
      <g id="Group_7802" data-name="Group 7802" transform="translate(-4082.025 -2612)">
        <line id="Line_769" data-name="Line 769" class="cls-2" x2="8.5" y2="8.5" transform="translate(0 0)"/>
      </g>
      <g id="Group_7803" data-name="Group 7803" transform="translate(-4082.025 -2612)">
        <line id="Line_770" data-name="Line 770" class="cls-2" y1="8.5" x2="8.5" transform="translate(0 0)"/>
      </g>
    </g>
  </g>
</svg>
