<svg xmlns="http://www.w3.org/2000/svg" viewBox="220 273 20 20.001">
  <defs>
    <style>
      .cls-1 {
        fill: #fff;
      }

      .cls-2 {
        fill: none;
        stroke: #b4b4b4;
        stroke-linecap: round;
        stroke-linejoin: round;
        stroke-miterlimit: 10;
        stroke-width: 1.5px;
      }
    </style>
  </defs>
  <g id="Group_1" data-name="Group 1" transform="translate(-771 208)">
    <rect id="Rectangle_1" data-name="Rectangle 1" class="cls-1" width="20" height="20" transform="translate(991 65)"/>
    <path id="Path_1" data-name="Path 1" class="cls-2" d="M.8.8H12.17l2.476,2.5v16H.8Z" transform="translate(993.28 64.951)"/>
    <path id="Path_2" data-name="Path 2" class="cls-2" d="M11.6,1V4.02h2.994" transform="translate(993.146 64.94)"/>
  </g>
</svg>
