<?xml version="1.0" encoding="utf-8"?>
<!-- Generator: Adobe Illustrator 19.2.1, SVG Export Plug-In . SVG Version: 6.00 Build 0)  -->
<svg version="1.1" id="Слой_1" xmlns="http://www.w3.org/2000/svg" xmlns:xlink="http://www.w3.org/1999/xlink" x="0px" y="0px"
	 viewBox="0 0 97.6 108" style="enable-background:new 0 0 97.6 108;" xml:space="preserve">
<style type="text/css">
	.st0{fill:#FFFFFF;}
	.st1{fill:#F18B13;}
	.st2{fill:#464646;}
	.st3{fill:#F9B75A;}
</style>
<g transform="translate(1750 430)">
	<path class="st0" d="M-1683.8-355l-3.5-7l-13.9,8.7l-13.9-8.7l-3.5,7c2.5,7.5,9.5,12.4,17.4,12.2
		C-1693.3-342.6-1686.3-347.5-1683.8-355z"/>
	<path class="st0" d="M-1720.4-396.9c0-10.6,8.6-15.7,19.2-15.7s19.2,5.1,19.2,15.7v10.5c-1.8,12.2-8.7,17.4-8.7,17.4
		c-1.7,1.7-7,3.5-10.5,3.5s-8.7-1.7-10.5-3.5c0,0-7-5.2-8.7-17.4V-396.9z"/>
	<path class="st0" d="M-1690.7-360.3l-10.5,7l-10.5-7v-8.7c0,0,5.2,3.5,10.5,3.5c5.2,0,10.5-3.5,10.5-3.5V-360.3z"/>
	<path class="st1" d="M-1683.8-355c0,5.2-8.8,12.2-17.4,12.2s-17.4-7-17.4-12.2c-12.2,7-29.6,7-29.6,24.4v7h94.1v-7
		C-1654.1-348.1-1671.6-348.1-1683.8-355z"/>
	<path class="st2" d="M-1690.7-358.6c-0.9,0-1.7-0.7-1.7-1.7c0,0,0,0,0,0v-8.7c0-0.9,0.7-1.7,1.7-1.7c0,0,0,0,0,0
		c0.9,0,1.7,0.7,1.7,1.6c0,0,0,0.1,0,0.1v8.7C-1689.1-359.4-1689.8-358.7-1690.7-358.6z"/>
	<path class="st3" d="M-1671.6-323.7h-6.9v-27.9l6.9,1.8V-323.7z"/>
	<path class="st3" d="M-1730.8-323.7h6.9v-27.9l-6.9,1.8V-323.7z"/>
	<path class="st2" d="M-1711.7-358.6c-0.9,0-1.7-0.7-1.7-1.7c0,0,0,0,0,0v-8.7c0-0.9,0.7-1.7,1.7-1.7c0,0,0,0,0,0
		c0.9,0,1.7,0.7,1.7,1.6c0,0,0,0.1,0,0.1v8.7C-1710-359.4-1710.7-358.6-1711.7-358.6C-1711.7-358.6-1711.7-358.6-1711.7-358.6z"/>
	<path class="st2" d="M-1701.2-363.8c-3.5,0-9.3-1.7-11.5-3.9c-0.9-0.7-7.5-6.4-9.3-18.4v-10.8c0-10.5,8.2-17.3,20.8-17.3
		c12.7,0,20.8,6.8,20.8,17.3v10.7c-1.7,12.1-8.3,17.7-9.3,18.4C-1691.9-365.5-1697.7-363.8-1701.2-363.8z M-1718.7-386.5
		c1.7,11.3,8,16.2,8,16.2c0.1,0,0.1,0.1,0.2,0.2c1.3,1.3,6,3,9.3,3c3.3,0,8-1.7,9.3-3l0.2-0.2c0.1,0,6.4-5,8-16.2v-10.4
		c0-10.3-9-14-17.5-14s-17.5,3.7-17.5,14V-386.5z"/>
	<path class="st2" d="M-1654.1-322h-94.2c-0.9,0-1.7-0.7-1.7-1.7c0,0,0,0,0,0v-7c0-13.8,10.2-17.7,20.1-21.3
		c3.6-1.2,7.1-2.7,10.4-4.5c0.5-0.3,1.2-0.3,1.7,0c0.5,0.3,0.8,0.8,0.8,1.4c0,4,7.6,10.5,15.8,10.5c8.2,0,15.8-6.6,15.8-10.5
		c0-0.6,0.3-1.1,0.8-1.4c0.5-0.3,1.2-0.3,1.7,0c3.3,1.8,6.8,3.3,10.4,4.5c9.9,3.7,20.1,7.5,20.1,21.3v7
		C-1652.5-322.8-1653.2-322.1-1654.1-322z M-1746.6-325.3h90.8v-5.3c0-11.5-8.3-14.6-17.9-18.2c-3-1-6-2.3-8.9-3.7
		c-2.1,5.8-10.7,11.3-18.6,11.3s-16.6-5.5-18.6-11.3c-2.9,1.4-5.9,2.6-8.9,3.7c-9.6,3.6-17.9,6.7-17.9,18.2V-325.3z"/>
	<path class="st2" d="M-1701.2-351.6c-0.3,0-0.6-0.1-0.9-0.3l-12.4-7.7l-2.7,5.3c-0.4,0.8-1.4,1.1-2.2,0.7c-0.8-0.4-1.1-1.4-0.7-2.2
		l3.5-7c0.2-0.4,0.6-0.7,1-0.9c0.4-0.1,0.9-0.1,1.3,0.2l13.1,8.2l13.1-8.2c0.4-0.2,0.9-0.3,1.3-0.2c0.5,0.1,0.9,0.4,1,0.9l3.5,7
		c0.4,0.8,0.1,1.8-0.7,2.2s-1.8,0.1-2.2-0.7l-2.7-5.3l-12.4,7.7C-1700.6-351.7-1700.9-351.6-1701.2-351.6z"/>
	<path class="st2" d="M-1701.2-341.2c-0.9,0-1.7-0.7-1.7-1.7c0,0,0,0,0,0v-10.5c0-0.9,0.7-1.7,1.7-1.7c0,0,0,0,0,0
		c0.9,0,1.7,0.7,1.7,1.6c0,0,0,0.1,0,0.1v10.5C-1699.5-342-1700.2-341.2-1701.2-341.2C-1701.2-341.2-1701.2-341.2-1701.2-341.2z"/>
	<path class="st2" d="M-1730.8-322c-0.9,0-1.7-0.7-1.7-1.7c0,0,0,0,0,0v-26.1c0-0.9,0.7-1.7,1.7-1.7c0,0,0,0,0,0
		c0.9,0,1.7,0.7,1.7,1.6c0,0,0,0.1,0,0.1v26.1C-1729.2-322.8-1729.9-322.1-1730.8-322z"/>
	<path class="st2" d="M-1723.9-322c-0.9,0-1.7-0.7-1.7-1.7c0,0,0,0,0,0v-27.9c0-0.9,0.7-1.7,1.7-1.7c0,0,0,0,0,0
		c0.9,0,1.7,0.7,1.7,1.6c0,0,0,0.1,0,0.1v27.9C-1722.2-322.8-1722.9-322-1723.9-322C-1723.9-322-1723.9-322-1723.9-322z"/>
	<path class="st2" d="M-1678.5-322c-0.9,0-1.7-0.7-1.7-1.7c0,0,0,0,0,0v-27.9c0-0.9,0.7-1.7,1.7-1.7c0,0,0,0,0,0
		c0.9,0,1.7,0.7,1.7,1.6c0,0,0,0.1,0,0.1v27.9C-1676.9-322.8-1677.6-322.1-1678.5-322z"/>
	<path class="st2" d="M-1671.6-322c-0.9,0-1.7-0.7-1.7-1.7c0,0,0,0,0,0v-26.1c0-0.9,0.7-1.7,1.7-1.7c0,0,0,0,0,0
		c0.9,0,1.7,0.7,1.7,1.6c0,0,0,0.1,0,0.1v26.1C-1669.9-322.8-1670.7-322-1671.6-322z"/>
	<path class="st1" d="M-1676.8-393.4v-8.7c0-13.5-10.9-24.4-24.4-24.4c-13.5,0-24.4,10.9-24.4,24.4v8.7
		C-1725.6-393.4-1676.8-393.4-1676.8-393.4z"/>
	<path class="st2" d="M-1676.8-391.7h-48.8c-0.9,0-1.7-0.7-1.7-1.7c0,0,0,0,0,0v-8.7c0-14.4,11.7-26.1,26.1-26.1
		c14.4,0,26.1,11.7,26.1,26.1v8.7C-1675.1-392.5-1675.9-391.7-1676.8-391.7z M-1723.9-395h45.5v-7.1c0-12.5-10.2-22.7-22.7-22.7
		c-12.5,0-22.7,10.2-22.7,22.7c0,0,0,0,0,0v7.1H-1723.9z"/>
	<path class="st2" d="M-1725.6-391.7h-3.6c-0.9,0-1.7-0.7-1.7-1.7c0,0,0,0,0,0c0-0.9,0.7-1.6,1.6-1.6c0,0,0.1,0,0.1,0h3.6
		c0.9,0,1.7,0.7,1.7,1.7c0,0,0,0,0,0c0,0.9-0.7,1.6-1.6,1.6C-1725.5-391.7-1725.6-391.7-1725.6-391.7z"/>
	<path class="st2" d="M-1673.2-391.7h-3.6c-0.9,0-1.7-0.7-1.7-1.7c0,0,0,0,0,0c0-0.9,0.7-1.7,1.6-1.7c0,0,0.1,0,0.1,0h3.6
		c0.9,0,1.7,0.8,1.7,1.7C-1671.5-392.5-1672.3-391.7-1673.2-391.7z"/>
	<rect x="-1706.4" y="-430" class="st3" width="10.5" height="20.9"/>
	<circle class="st0" cx="-1701.2" cy="-407.3" r="7"/>
</g>
</svg>
