<svg xmlns="http://www.w3.org/2000/svg" viewBox="0 0 16.811 16.31">
  <defs>
    <style>
      .cls-1 {
        fill: none;
        stroke-linejoin: round;
        stroke-miterlimit: 10;
      }

      .cls-1, .cls-2 {
        stroke: #787878;
        stroke-linecap: round;
        stroke-width: 1.5px;
      }

      .cls-2 {
        fill: #f0f0f0;
      }
    </style>
  </defs>
  <g id="Group_1" data-name="Group 1" transform="translate(-7578.25 2782.75)">
    <line id="Line_692" data-name="Line 692" class="cls-1" x2="11.7" y2="11.3" transform="translate(7582.3 -2778.8)"/>
    <path id="Path_17085" data-name="Path 17085" class="cls-2" d="M6,0a5.911,5.911,0,0,1,6,5.818,5.911,5.911,0,0,1-6,5.818A5.911,5.911,0,0,1,0,5.818,5.911,5.911,0,0,1,6,0Z" transform="translate(7579 -2782)"/>
  </g>
</svg>
