<?xml version="1.0" encoding="utf-8"?>
<!-- Generator: Adobe Illustrator 19.2.1, SVG Export Plug-In . SVG Version: 6.00 Build 0)  -->
<svg version="1.1" id="Слой_1" xmlns="http://www.w3.org/2000/svg" xmlns:xlink="http://www.w3.org/1999/xlink" x="0px" y="0px"
	 viewBox="0 0 25 25" style="enable-background:new 0 0 25 25;" xml:space="preserve">
<style type="text/css">
	.st0{fill:#B4B4B4;}
	.st1{fill:#FFFFFF;}
	.st2{fill:#4D5152;}
	.st3{fill:#464646;}
</style>
<g transform="translate(1139 610)">
	<circle class="st0" cx="-1126.5" cy="-597.5" r="12.5"/>
	<path class="st1" d="M-1124.2-596.7l5.4,3.1v1.6c0,1.3-0.8,2.3-1.6,2.3h-12.3c-0.8,0-1.6-1-1.6-2.3v-1.6l5.4-3.1"/>
	<path class="st1" d="M-1122.6-601c0,2.7-1.5,5-3.9,5s-3.9-2.3-3.9-5s0.8-4.3,3.9-4.3S-1122.6-603.7-1122.6-601z"/>
	<path class="st2" d="M-1126.5-595.2c-2.6,0-4.6-2.5-4.6-5.8c0-2.3,0.5-5,4.6-5s4.6,2.7,4.6,5
		C-1121.9-597.7-1123.9-595.2-1126.5-595.2z M-1126.5-604.5c-2.4,0-3.1,0.9-3.1,3.5c0,2.1,1.1,4.3,3.1,4.3s3.1-2.2,3.1-4.3
		C-1123.4-603.7-1124.1-604.5-1126.5-604.5z"/>
	<path class="st2" d="M-1120.3-589h-12.4c-1.3,0-2.3-1.4-2.3-3.1v-1.6c0-0.3,0.1-0.6,0.4-0.7l5.4-3.1l0.7,1.3l-5.1,2.9v1.1
		c-0.1,0.6,0.2,1.3,0.8,1.6h12.4c0.6-0.3,0.9-1,0.8-1.6v-1.1l-5.1-2.9l0.7-1.3l5.4,3.1c0.2,0.2,0.4,0.4,0.4,0.7v1.6
		C-1118-590.4-1119-589-1120.3-589z"/>
	<circle class="st3" cx="-1118" cy="-606" r="4"/>
	<path class="st1" d="M-1118-603.2c-0.4,0-0.8-0.3-0.8-0.8c0,0,0,0,0,0v-4c0-0.4,0.3-0.8,0.8-0.8c0,0,0,0,0,0c0.4,0,0.8,0.3,0.8,0.7
		c0,0,0,0.1,0,0.1v4C-1117.2-603.6-1117.6-603.2-1118-603.2z"/>
	<path class="st1" d="M-1116-605.2h-4c-0.4,0-0.8-0.3-0.8-0.8c0,0,0,0,0,0c0-0.4,0.3-0.8,0.7-0.8c0,0,0.1,0,0.1,0h4
		c0.4,0,0.8,0.4,0.8,0.8S-1115.6-605.2-1116-605.2z"/>
</g>
</svg>
