<svg xmlns="http://www.w3.org/2000/svg" viewBox="361 269 26 26">
  <defs>
    <style>
      .cls-1, .cls-3 {
        fill: #009982;
      }

      .cls-2, .cls-5 {
        fill: none;
      }

      .cls-2, .cls-3 {
        stroke: #fff;
        stroke-width: 1.5px;
      }

      .cls-4 {
        stroke: none;
      }
    </style>
  </defs>
  <g id="Group_2" data-name="Group 2" transform="translate(-741 -128)">
    <circle id="ellipse" class="cls-1" cx="13" cy="13" r="13" transform="translate(1102 397)"/>
    <g id="Group_1" data-name="Group 1" transform="translate(496 259)">
      <g id="Ellipse_1" data-name="Ellipse 1" class="cls-2" transform="translate(626 158) rotate(180)">
        <circle class="cls-4" cx="7" cy="7" r="7"/>
        <circle class="cls-5" cx="7" cy="7" r="6.25"/>
      </g>
      <g id="Ellipse_2" data-name="Ellipse 2" class="cls-3" transform="translate(622 148) rotate(180)">
        <circle class="cls-4" cx="3" cy="3" r="3"/>
        <circle class="cls-5" cx="3" cy="3" r="2.25"/>
      </g>
      <path id="Path_1" data-name="Path 1" class="cls-3" d="M3,.75A2.25,2.25,0,1,1,.75,3,2.25,2.25,0,0,1,3,.75Z" transform="translate(617 156) rotate(180)"/>
      <path id="Path_2" data-name="Path 2" class="cls-3" d="M3,.75A2.25,2.25,0,1,1,.75,3,2.25,2.25,0,0,1,3,.75Z" transform="translate(627 156) rotate(180)"/>
    </g>
  </g>
</svg>
