<?xml version="1.0" encoding="utf-8"?>
<!-- Generator: Adobe Illustrator 19.2.1, SVG Export Plug-In . SVG Version: 6.00 Build 0)  -->
<svg version="1.1" id="Слой_1" xmlns="http://www.w3.org/2000/svg" xmlns:xlink="http://www.w3.org/1999/xlink" x="0px" y="0px"
	 viewBox="0 0 20 18" style="enable-background:new 0 0 20 18;" xml:space="preserve">
<style type="text/css">
	.st0{fill:none;}
	.st1{fill:#B4B4B4;}
</style>
<g transform="translate(597 341.997)">
	<g transform="translate(0 0.003)">
		<path class="st0" d="M-596.2-333v-3c0-0.4,0.3-0.8,0.8-0.8c0,0,0,0,0,0h2.5c0.2,0,0.4-0.1,0.5-0.2l3.9-4c0.3-0.3,0.7-0.3,1,0
			c0.1,0.1,0.2,0.3,0.2,0.5v15c0,0.4-0.3,0.7-0.7,0.8c-0.2,0-0.4-0.1-0.6-0.3l-3.9-4c-0.1-0.1-0.3-0.2-0.5-0.2h-2.6
			c-0.4,0-0.8-0.3-0.8-0.8c0,0,0,0,0,0L-596.2-333L-596.2-333z"/>
		<path class="st1" d="M-588-324c-0.4,0-0.8-0.2-1.1-0.5l-3.9-4h-2.6c-0.8,0-1.4-0.7-1.4-1.5v-6c0-0.8,0.6-1.5,1.4-1.5
			c0,0,0,0,0.1,0h2.5l3.9-4c0.5-0.5,1.1-0.6,1.7-0.4c0.6,0.2,1,0.8,1,1.4v14.9c0,0.6-0.4,1.2-1,1.4C-587.6-324.1-587.8-324-588-324z
			 M-595.6-336v5.9h2.5c0.4,0,0.8,0.2,1.1,0.5l3.9,4v-14.9l-3.9,4c-0.2,0.3-0.6,0.5-1,0.5H-595.6z"/>
		<g transform="translate(12.174 1.497)">
			<g transform="translate(0 3.6)">
				<path class="st1" d="M-596.2-334.2c-0.4,0-0.8-0.4-0.8-0.8s0.4-0.8,0.8-0.8c1.2,0,2.2-1,2.2-2.2c0,0,0-0.1,0-0.1
					c0-1.2-0.9-2.3-2.2-2.3c0,0,0,0-0.1,0c-0.4,0-0.8-0.4-0.8-0.8c0-0.4,0.4-0.8,0.8-0.8c2.1,0,3.8,1.8,3.8,3.9
					C-592.5-336-594.1-334.3-596.2-334.2z"/>
			</g>
			<path class="st1" d="M-596.2-327.2c-0.4,0-0.8-0.4-0.8-0.8s0.4-0.8,0.8-0.8c3.1-0.1,5.7-2.7,5.6-5.8c0.1-3.1-2.5-5.7-5.6-5.8
				c-0.4,0-0.8-0.3-0.8-0.8c0,0,0,0,0,0c0-0.4,0.2-0.8,0.6-0.8c0,0,0.1,0,0.1,0c4,0.1,7.1,3.3,7.1,7.3
				C-589.2-330.7-592.4-327.2-596.2-327.2z"/>
		</g>
	</g>
</g>
</svg>
