<svg xmlns="http://www.w3.org/2000/svg" viewBox="0 0 25 25">
  <defs>
    <style>
      .cls-1 {
        fill: #f0f0f0;
      }

      .cls-2, .cls-4 {
        fill: none;
      }

      .cls-3 {
        fill: #fff;
        stroke-width: 1.5px;
      }

      .cls-3, .cls-4 {
        stroke: #787878;
        stroke-linecap: round;
        stroke-miterlimit: 10;
      }
    </style>
  </defs>
  <g id="Group_1" data-name="Group 1" transform="translate(-1164 -659)">
    <circle id="Ellipse_5210" data-name="Ellipse 5210" class="cls-1" cx="12.5" cy="12.5" r="12.5" transform="translate(1164 659)"/>
    <g id="if_price_tag_172526" transform="translate(1168 680) rotate(-90)">
      <rect id="Rectangle_7387" data-name="Rectangle 7387" class="cls-2" width="16.877" height="16.877"/>
      <path id="Path_17083" data-name="Path 17083" class="cls-3" d="M17.852,3.844A.844.844,0,0,0,17.008,3H11.986c-.449,0-.879-.024-1.128.225L3.187,10.9a.638.638,0,0,0,0,.9l5.864,5.864a.638.638,0,0,0,.9,0l7.672-7.672c.249-.249.225-.668.225-1.127C17.851,8.865,17.852,3.9,17.852,3.844Z" transform="translate(-1.987 -1.987)"/>
      <circle id="Ellipse_4679" data-name="Ellipse 4679" class="cls-4" cx="1.013" cy="1.013" r="1.013" transform="translate(12.151 2.7)"/>
    </g>
  </g>
</svg>
