<svg xmlns="http://www.w3.org/2000/svg" viewBox="0 0 21.775 21.775">
  <defs>
    <style>
      .cls-1, .cls-3 {
        fill: none;
      }

      .cls-2 {
        fill: #fff;
        stroke-width: 1.5px;
      }

      .cls-2, .cls-3 {
        stroke: #787878;
        stroke-linecap: round;
        stroke-miterlimit: 10;
      }
    </style>
  </defs>
  <g id="if_price_tag_172526" transform="translate(0 21.775) rotate(-90)">
    <rect id="Rectangle_7387" data-name="Rectangle 7387" class="cls-1" width="21.775" height="21.775"/>
    <path id="Path_17083" data-name="Path 17083" class="cls-2" d="M22.162,4.089A1.089,1.089,0,0,0,21.073,3H14.595c-.579,0-1.134-.03-1.455.291l-9.9,9.9a.823.823,0,0,0,0,1.165l7.567,7.567a.824.824,0,0,0,1.165,0l9.9-9.9c.321-.321.291-.862.291-1.455C22.161,10.568,22.162,4.157,22.162,4.089Z" transform="translate(-1.693 -1.693)"/>
    <circle id="Ellipse_4679" data-name="Ellipse 4679" class="cls-3" cx="1.307" cy="1.307" r="1.307" transform="translate(15.678 3.484)"/>
  </g>
</svg>
