<svg xmlns="http://www.w3.org/2000/svg" viewBox="1926 -1680 18 18">
  <defs>
    <style>
      .cls-1 {
        fill: #b4b4b4;
      }

      .cls-2 {
        fill: #464646;
      }
    </style>
  </defs>
  <g id="group-288" transform="translate(1815 -2023)">
    <g id="group-285" transform="translate(111 343)">
      <path id="path" class="cls-1" d="M8.975,0A8.95,8.95,0,0,0,0,9,8.975,8.975,0,1,0,17.95,9,8.95,8.95,0,0,0,8.975,0Z"/>
    </g>
    <g id="group-286" transform="translate(114.989 343)">
      <g id="group">
        <path id="path-2" data-name="path" class="cls-2" d="M3.889,11.2a.793.793,0,0,1-.6-.3L.3,7.9a.914.914,0,0,1,0-1.2.908.908,0,0,1,1.2,0L3.889,9,12.665.2a.908.908,0,0,1,1.2,0,.914.914,0,0,1,0,1.2L4.488,10.8A.8.8,0,0,1,3.889,11.2Z" transform="translate(-0.075 0.025)"/>
      </g>
    </g>
  </g>
</svg>
