<svg xmlns="http://www.w3.org/2000/svg" viewBox="0 0 108 35">
  <defs>
    <style>
      .cls-1 {
        fill: #0096c8;
      }

      .cls-2, .cls-3 {
        fill: #fff;
      }

      .cls-2 {
        font-size: 14px;
        font-family: ProximaNova-Bold, Proxima Nova;
        font-weight: 700;
      }
    </style>
  </defs>
  <g id="Group_32008" data-name="Group 32008" transform="translate(-1102 -98)">
    <rect id="Rectangle_7445" data-name="Rectangle 7445" class="cls-1" width="108" height="35" rx="6" transform="translate(1102 98)"/>
    <text id="John_Smith" data-name="John Smith" class="cls-2" transform="translate(1138 107)"><tspan x="0" y="13">New User</tspan></text>
    <g id="Group_31905" data-name="Group 31905" transform="translate(15 4)">
      <rect id="Rectangle_7446" data-name="Rectangle 7446" class="cls-3" width="2.609" height="16" rx="1.304" transform="translate(1103.696 103)"/>
      <rect id="Rectangle_7447" data-name="Rectangle 7447" class="cls-3" width="16" height="2.609" rx="1.304" transform="translate(1097 109.696)"/>
    </g>
  </g>
</svg>
