<svg xmlns="http://www.w3.org/2000/svg" viewBox="222 274 18 18">
  <defs>
    <style>
      .cls-1 {
        fill: #00aff0;
        opacity: 0;
      }

      .cls-2, .cls-3 {
        fill: #fff;
        stroke: #787878;
        stroke-linejoin: round;
        stroke-miterlimit: 10;
        stroke-width: 1.5px;
      }

      .cls-3 {
        stroke-linecap: round;
      }
    </style>
  </defs>
  <g id="Group_1" data-name="Group 1" transform="translate(-474 124)">
    <rect id="Rectangle_50" data-name="Rectangle 50" class="cls-1" width="18" height="18" transform="translate(696 150)"/>
    <path id="Path_278" data-name="Path 278" class="cls-2" d="M11.23,12.8,16.9,16v1.6c0,1.309-.81,2.4-1.62,2.4H2.32C1.51,20,.7,18.909.7,17.6V16l5.67-3.2" transform="translate(696.2 147.099)"/>
    <path id="Path_279" data-name="Path 279" class="cls-3" d="M14.3,5.334c0,2.872-1.62,5.366-4.05,5.366S6.2,8.206,6.2,5.334,7.01.8,10.25.8,14.3,2.387,14.3,5.334Z" transform="translate(694.75 150.1)"/>
  </g>
</svg>
