<svg xmlns="http://www.w3.org/2000/svg" viewBox="0 0 16 16">
  <defs>
    <style>
      .cls-1 {
        fill: #b4b4b4;
      }

      .cls-2 {
        fill: #464646;
        font-size: 10px;
        font-family: ProximaNova-Bold, Proxima Nova;
        font-weight: 700;
      }
    </style>
  </defs>
  <g id="Group_31856" data-name="Group 31856" transform="translate(-541 -704)">
    <circle id="Ellipse_5213" data-name="Ellipse 5213" class="cls-1" cx="8" cy="8" r="8" transform="translate(541 704)"/>
    <text id="John_Smith" data-name="John Smith" class="cls-2" transform="translate(546 707)"><tspan x="0" y="9">V</tspan></text>
  </g>
</svg>
