<?xml version="1.0" encoding="utf-8"?>
<!-- Generator: Adobe Illustrator 17.0.0, SVG Export Plug-In . SVG Version: 6.00 Build 0)  -->
<!DOCTYPE svg PUBLIC "-//W3C//DTD SVG 1.1//EN" "http://www.w3.org/Graphics/SVG/1.1/DTD/svg11.dtd">
<svg version="1.1" id="Layer_1" xmlns="http://www.w3.org/2000/svg" xmlns:xlink="http://www.w3.org/1999/xlink" x="0px" y="0px"
	 width="612px" height="612px" viewBox="0 90 612 612" enable-background="new 0 90 612 612" xml:space="preserve">
<g>
	<path fill="#FFFFFF" d="M592.538,609.833L408.388,425.988c51.347-83.538,40.82-194.249-31.64-266.587
		c-84.762-84.701-222.217-84.701-307.04,0c-84.762,84.64-84.762,221.911,0,306.612c64.444,70.808,183.172,78.703,265.424,31.885
		l184.763,184.457c26.683,26.683,47.063,9.119,63.77-7.589C600.372,658.12,619.222,636.516,592.538,609.833z M320.994,409.464
		c-54.407,54.284-142.596,54.284-196.942,0c-54.407-54.284-54.407-142.351,0-196.636s142.596-54.284,196.942,0
		C375.401,267.113,375.401,355.18,320.994,409.464z"/>
</g>
</svg>
