<svg xmlns="http://www.w3.org/2000/svg" viewBox="-6621.5 -15650 16 16">
  <defs>
    <style>
      .cls-1, .cls-3 {
        fill: #464646;
      }

      .cls-2 {
        fill: none;
      }

      .cls-2, .cls-3 {
        stroke: #fff;
        stroke-linecap: round;
        stroke-linejoin: round;
        stroke-miterlimit: 10;
        stroke-width: 1.5px;
      }
    </style>
  </defs>
  <g id="Group_8102" data-name="Group 8102" transform="translate(-14198.5 -12866)">
    <circle id="Ellipse_1262" data-name="Ellipse 1262" class="cls-1" cx="8" cy="8" r="8" transform="translate(7577 -2784)"/>
    <g id="Group_8101" data-name="Group 8101">
      <line id="Line_1033" data-name="Line 1033" class="cls-2" x2="7.1" y2="6.8" transform="translate(7582.3 -2777.8)"/>
      <ellipse id="Ellipse_1263" data-name="Ellipse 1263" class="cls-3" cx="3.3" cy="3.2" rx="3.3" ry="3.2" transform="translate(7579 -2781)"/>
    </g>
  </g>
</svg>
