<svg xmlns="http://www.w3.org/2000/svg" viewBox="-6621.5 -18331 16 16">
  <defs>
    <style>
      .cls-1, .cls-3 {
        fill: #fff;
      }

      .cls-2 {
        fill: none;
      }

      .cls-2, .cls-3 {
        stroke: #464646;
        stroke-linecap: round;
        stroke-linejoin: round;
        stroke-miterlimit: 10;
        stroke-width: 1.5px;
      }
    </style>
  </defs>
  <g id="Group_8194" data-name="Group 8194" transform="translate(-14198.5 -15547)">
    <circle id="Ellipse_1303" data-name="Ellipse 1303" class="cls-1" cx="8" cy="8" r="8" transform="translate(7577 -2784)"/>
    <g id="Group_8193" data-name="Group 8193">
      <line id="Line_1042" data-name="Line 1042" class="cls-2" x2="7.1" y2="6.8" transform="translate(7582.3 -2777.8)"/>
      <ellipse id="Ellipse_1304" data-name="Ellipse 1304" class="cls-3" cx="3.3" cy="3.2" rx="3.3" ry="3.2" transform="translate(7579 -2781)"/>
    </g>
  </g>
</svg>
