<svg xmlns="http://www.w3.org/2000/svg" viewBox="-12447 -20094 75 18">
  <defs>
    <style>
      .cls-1 {
        fill: #464646;
      }

      .cls-2 {
        fill: #fff;
        font-size: 10px;
        font-family: ProximaNova-Bold, Proxima Nova;
        font-weight: 700;
      }
    </style>
  </defs>
  <g id="Group_4138" data-name="Group 4138" transform="translate(168 842)">
    <rect id="Rectangle_721" data-name="Rectangle 721" class="cls-1" width="75" height="18" rx="9" transform="translate(-12615 -20936)"/>
    <text id="John_Smith" data-name="John Smith" class="cls-2" transform="translate(-12604 -20933)"><tspan x="2.265" y="10">View Team</tspan></text>
  </g>
</svg>
