<svg xmlns="http://www.w3.org/2000/svg" viewBox="-23252 -18212.5 30 30">
  <defs>
    <style>
      .cls-1 {
        fill: #da0260;
      }

      .cls-2, .cls-3, .cls-5 {
        fill: none;
      }

      .cls-2, .cls-3 {
        stroke: #fff;
        stroke-width: 1.5px;
      }

      .cls-2 {
        stroke-linecap: round;
        stroke-linejoin: round;
        stroke-miterlimit: 10;
      }

      .cls-4 {
        stroke: none;
      }
    </style>
  </defs>
  <g id="Group_9900" data-name="Group 9900" transform="translate(-533 3321)">
    <circle id="ellipse" class="cls-1" cx="15" cy="15" r="15" transform="translate(-22719 -21533.5)"/>
    <g id="Group_9899" data-name="Group 9899" transform="translate(-69 949.5)">
      <rect id="Rectangle_1701" data-name="Rectangle 1701" class="cls-1" width="20" height="20" transform="translate(-22645 -22478)"/>
      <g id="Group_9898" data-name="Group 9898" transform="translate(-77.75 -0.5)">
        <line id="Line_1352" data-name="Line 1352" class="cls-2" x1="6.363" transform="translate(-22557.295 -22474)"/>
        <line id="Line_1353" data-name="Line 1353" class="cls-2" y2="6.364" transform="translate(-22550.932 -22474)"/>
        <g id="Ellipse_1819" data-name="Ellipse 1819" class="cls-3" transform="translate(-22565.25 -22460) rotate(-90)">
          <ellipse class="cls-4" cx="2.545" cy="2.545" rx="2.545" ry="2.545"/>
          <ellipse class="cls-5" cx="2.545" cy="2.545" rx="1.795" ry="1.795"/>
        </g>
        <line id="Line_1354" data-name="Line 1354" class="cls-2" y1="10.181" x2="10.181" transform="translate(-22561.113 -22474)"/>
      </g>
    </g>
  </g>
</svg>
