<svg xmlns="http://www.w3.org/2000/svg" viewBox="-23252 -18292.5 30 30">
  <defs>
    <style>
      .cls-1 {
        fill: #00aff0;
      }

      .cls-2, .cls-3 {
        fill: none;
        stroke: #fff;
        stroke-width: 1.5px;
      }

      .cls-3 {
        stroke-linecap: round;
        stroke-linejoin: round;
        stroke-miterlimit: 10;
      }
    </style>
  </defs>
  <g id="Group_9891" data-name="Group 9891" transform="translate(-531 3276)">
    <circle id="ellipse" class="cls-1" cx="15" cy="15" r="15" transform="translate(-22721 -21568.5)"/>
    <g id="Group_9890" data-name="Group 9890" transform="translate(-99 949.5)">
      <rect id="Rectangle_1700" data-name="Rectangle 1700" class="cls-1" width="20" height="20" transform="translate(-22617 -22513)"/>
      <g id="Group_9889" data-name="Group 9889" transform="translate(1.25 0.25)">
        <circle id="ellipse-2" data-name="ellipse" class="cls-2" cx="9.25" cy="9.25" r="9.25" transform="translate(-22617.5 -22512.5)"/>
        <line id="Line_1350" data-name="Line 1350" class="cls-3" y1="6.25" transform="translate(-22608.25 -22509.75)"/>
        <line id="Line_1351" data-name="Line 1351" class="cls-3" x1="4.5" transform="translate(-22608.25 -22503.25)"/>
      </g>
    </g>
  </g>
</svg>
