<svg xmlns="http://www.w3.org/2000/svg" viewBox="-23489 -18053 30 30">
  <defs>
    <style>
      .cls-1, .cls-3, .cls-4 {
        fill: #f29105;
      }

      .cls-2, .cls-5 {
        fill: #fff;
      }

      .cls-2, .cls-3, .cls-4 {
        stroke: #fff;
        stroke-miterlimit: 10;
        stroke-width: 1.5px;
      }

      .cls-3 {
        stroke-linecap: round;
        stroke-linejoin: round;
      }
    </style>
  </defs>
  <g id="Group_9932" data-name="Group 9932" transform="translate(-1132 37)">
    <path id="ellipse" class="cls-1" d="M15,0A15,15,0,1,1,0,15,15,15,0,0,1,15,0Z" transform="translate(-22357 -18090)"/>
    <g id="Group_9921" data-name="Group 9921" transform="translate(240 4493.5)">
      <rect id="Rectangle_1712" data-name="Rectangle 1712" class="cls-1" width="20" height="20" transform="translate(-22592 -22578.5)"/>
      <g id="Group_9920" data-name="Group 9920" transform="translate(-24.168)">
        <path id="Path_6789" data-name="Path 6789" class="cls-2" d="M19.089,1.853a11.776,11.776,0,0,0,.682,2.7H16.7a11.776,11.776,0,0,0,.682-2.7.853.853,0,1,1,1.706,0Z" transform="translate(-22576.176 -22578.748)"/>
        <path id="Path_6790" data-name="Path 6790" class="cls-3" d="M1.2,19.376a18.988,18.988,0,0,0,1.706-8.258A5.076,5.076,0,0,1,8.024,6a5.076,5.076,0,0,1,5.118,5.118,18.988,18.988,0,0,0,1.706,8.258Z" transform="translate(-22565.963 -22582.041)"/>
        <ellipse id="Ellipse_1825" data-name="Ellipse 1825" class="cls-4" cx="6.893" cy="3.071" rx="6.893" ry="3.071" transform="translate(-22564.832 -22565.396)"/>
        <path id="Path_6791" data-name="Path 6791" class="cls-5" d="M2.559,1c1.413,0,2.559.146,2.559,1.559A2.559,2.559,0,1,1,0,2.559C0,1.146,1.146,1,2.559,1Z" transform="translate(-22560.498 -22567)"/>
      </g>
    </g>
  </g>
</svg>
