<svg xmlns="http://www.w3.org/2000/svg" viewBox="111.25 269.25 27.5 27.5">
  <defs>
    <style>
      .cls-1, .cls-2 {
        fill: none;
      }

      .cls-1, .cls-3, .cls-4, .cls-5 {
        stroke: #b4b4b4;
        stroke-width: 1.5px;
      }

      .cls-3, .cls-6 {
        fill: #b4b4b4;
      }

      .cls-3, .cls-4, .cls-5 {
        stroke-miterlimit: 10;
      }

      .cls-4, .cls-5 {
        fill: #fff;
      }

      .cls-4 {
        stroke-linecap: round;
        stroke-linejoin: round;
      }
    </style>
  </defs>
  <g id="Group_1" data-name="Group 1" transform="translate(22695 22795)">
    <circle id="ellipse" class="cls-1" cx="13" cy="13" r="13" transform="translate(-22583 -22525)"/>
    <g id="Group_15" data-name="Group 15" transform="translate(-22578.666 -22520.666)">
      <rect id="Rectangle_1" data-name="Rectangle 1" class="cls-2" width="17.333" height="17.333" transform="translate(0)"/>
      <g id="Group_14" data-name="Group 14" transform="translate(2.6 0.652)">
        <path id="Path_1" data-name="Path 1" class="cls-3" d="M2.07.739a10.206,10.206,0,0,0,.591,2.339H0A10.206,10.206,0,0,0,.591.739.732.732,0,0,1,1.331,0,.732.732,0,0,1,2.07.739Z" transform="translate(4.642 0)"/>
        <path id="Path_2" data-name="Path 2" class="cls-4" d="M0,11.592A16.456,16.456,0,0,0,1.479,4.436,4.4,4.4,0,0,1,5.914,0,4.4,4.4,0,0,1,10.35,4.436a16.456,16.456,0,0,0,1.479,7.157Z" transform="translate(0.06 1.479)"/>
        <ellipse id="Ellipse_5" data-name="Ellipse 5" class="cls-5" cx="5.974" cy="2.662" rx="5.974" ry="2.662" transform="translate(0 10.705)"/>
        <path id="Path_3" data-name="Path 3" class="cls-6" d="M2.218,0C3.443,0,4.436.126,4.436,1.351A2.218,2.218,0,1,1,0,1.351C0,.126.993,0,2.218,0Z" transform="translate(3.756 10.182)"/>
      </g>
    </g>
  </g>
</svg>
