<svg xmlns="http://www.w3.org/2000/svg" viewBox="111 269 28 28">
  <defs>
    <style>
      .cls-1, .cls-3, .cls-4 {
        fill: #f29105;
      }

      .cls-2, .cls-5 {
        fill: #fff;
      }

      .cls-2, .cls-3, .cls-4 {
        stroke: #fff;
        stroke-miterlimit: 10;
        stroke-width: 1.5px;
      }

      .cls-3 {
        stroke-linecap: round;
        stroke-linejoin: round;
      }
    </style>
  </defs>
  <g id="Group_1" data-name="Group 1" transform="translate(22299 22447)">
    <path id="ellipse" class="cls-1" d="M14,0A14,14,0,1,1,0,14,14,14,0,0,1,14,0Z" transform="translate(-22188 -22178)"/>
    <g id="Group_14301" data-name="Group 14301" transform="translate(-22183.334 -22173.334)">
      <rect id="Rectangle_3879" data-name="Rectangle 3879" class="cls-1" width="18.667" height="18.667" transform="translate(0)"/>
      <g id="Group_14300" data-name="Group 14300" transform="translate(2.8 0.702)">
        <path id="Path_9118" data-name="Path 9118" class="cls-2" d="M2.229.8a10.991,10.991,0,0,0,.637,2.518H0A10.991,10.991,0,0,0,.637.8a.788.788,0,0,1,.8-.8A.788.788,0,0,1,2.229.8Z" transform="translate(4.999 0)"/>
        <path id="Path_9119" data-name="Path 9119" class="cls-3" d="M0,12.484A17.722,17.722,0,0,0,1.592,4.777,4.738,4.738,0,0,1,6.369,0a4.738,4.738,0,0,1,4.777,4.777,17.722,17.722,0,0,0,1.592,7.707Z" transform="translate(0.065 1.593)"/>
        <ellipse id="Ellipse_2367" data-name="Ellipse 2367" class="cls-4" cx="6.433" cy="2.866" rx="6.433" ry="2.866" transform="translate(0 11.528)"/>
        <path id="Path_9120" data-name="Path 9120" class="cls-5" d="M2.389,0C3.708,0,4.777.136,4.777,1.455A2.389,2.389,0,1,1,0,1.455C0,.136,1.069,0,2.389,0Z" transform="translate(4.045 10.965)"/>
      </g>
    </g>
  </g>
</svg>
