<svg xmlns="http://www.w3.org/2000/svg" xmlns:xlink="http://www.w3.org/1999/xlink" viewBox="-8958 -21438 90 90">
  <defs>
    <style>
      .cls-1 {
        fill: url(#linear-gradient);
      }

      .cls-10, .cls-11, .cls-15, .cls-16, .cls-2 {
        stroke: #464646;
        stroke-linejoin: round;
        stroke-miterlimit: 10;
      }

      .cls-10, .cls-15, .cls-16, .cls-2 {
        stroke-linecap: round;
        stroke-width: 1.5px;
      }

      .cls-2 {
        fill: url(#linear-gradient-2);
      }

      .cls-3 {
        fill: url(#linear-gradient-3);
      }

      .cls-4 {
        clip-path: url(#clip-path);
      }

      .cls-5 {
        fill: url(#linear-gradient-4);
      }

      .cls-6 {
        fill: url(#linear-gradient-5);
      }

      .cls-7 {
        fill: url(#linear-gradient-6);
      }

      .cls-8 {
        fill: url(#linear-gradient-7);
      }

      .cls-9 {
        fill: url(#linear-gradient-8);
      }

      .cls-10, .cls-11 {
        fill: none;
      }

      .cls-11 {
        stroke-width: 2.224px;
      }

      .cls-12 {
        fill: url(#linear-gradient-9);
      }

      .cls-13 {
        fill: url(#linear-gradient-10);
      }

      .cls-14 {
        fill: url(#linear-gradient-11);
      }

      .cls-15 {
        fill: url(#linear-gradient-12);
      }

      .cls-16 {
        fill: url(#linear-gradient-13);
      }
    </style>
    <linearGradient id="linear-gradient" x1="0.5" y1="1" x2="0.5" gradientUnits="objectBoundingBox">
      <stop offset="0" stop-color="#cd7300"/>
      <stop offset="0.338" stop-color="#e18403"/>
      <stop offset="0.675" stop-color="#ee8e04"/>
      <stop offset="1" stop-color="#f29105"/>
    </linearGradient>
    <linearGradient id="linear-gradient-2" x1="0.508" y1="-0.001" x2="0.508" y2="1" gradientUnits="objectBoundingBox">
      <stop offset="0" stop-color="#cd7300"/>
      <stop offset="1" stop-color="#464646"/>
    </linearGradient>
    <linearGradient id="linear-gradient-3" x1="0.5" y1="1" x2="0.5" y2="0.005" gradientUnits="objectBoundingBox">
      <stop offset="0" stop-color="#464646"/>
      <stop offset="0.295" stop-color="#4a4a4a"/>
      <stop offset="0.567" stop-color="#555"/>
      <stop offset="0.829" stop-color="#676767"/>
      <stop offset="1" stop-color="#787878"/>
    </linearGradient>
    <clipPath id="clip-path">
      <path id="path" d="M92.2,97.4c0,7-12.2,12.6-27.2,12.6s-27.2-5.6-27.2-12.6S50,66.5,65,66.5,92.2,90.4,92.2,97.4Z"/>
    </clipPath>
    <linearGradient id="linear-gradient-4" x1="0.5" y1="-0.007" x2="0.5" y2="1.007" gradientUnits="objectBoundingBox">
      <stop offset="0" stop-color="#b4b4b4"/>
      <stop offset="0.063" stop-color="#bdbdbd"/>
      <stop offset="0.302" stop-color="#dadada"/>
      <stop offset="0.54" stop-color="#eee"/>
      <stop offset="0.774" stop-color="#fbfbfb"/>
      <stop offset="1" stop-color="#fff"/>
    </linearGradient>
    <linearGradient id="linear-gradient-5" x1="0.501" x2="0.501" y2="1.004" gradientUnits="objectBoundingBox">
      <stop offset="0" stop-color="#f29105"/>
      <stop offset="0.091" stop-color="#e98d08"/>
      <stop offset="0.239" stop-color="#d18212"/>
      <stop offset="0.426" stop-color="#a97121"/>
      <stop offset="0.642" stop-color="#725935"/>
      <stop offset="0.8" stop-color="#464646"/>
    </linearGradient>
    <linearGradient id="linear-gradient-6" x1="0.5" y1="0.001" x2="0.5" y2="1.002" gradientUnits="objectBoundingBox">
      <stop offset="0" stop-color="#5fd7f5"/>
      <stop offset="0.17" stop-color="#42c3e7"/>
      <stop offset="0.382" stop-color="#25b0da"/>
      <stop offset="0.592" stop-color="#11a1d0"/>
      <stop offset="0.8" stop-color="#0499ca"/>
      <stop offset="1" stop-color="#0096c8"/>
    </linearGradient>
    <linearGradient id="linear-gradient-7" x1="0.5" y1="1.006" x2="0.5" y2="0.002" gradientUnits="objectBoundingBox">
      <stop offset="0" stop-color="#b4b4b4"/>
      <stop offset="0.047" stop-color="#c4c4c4"/>
      <stop offset="0.131" stop-color="#dadada"/>
      <stop offset="0.229" stop-color="#ebebeb"/>
      <stop offset="0.352" stop-color="#f6f6f6"/>
      <stop offset="0.524" stop-color="#fdfdfd"/>
      <stop offset="1" stop-color="#fff"/>
    </linearGradient>
    <linearGradient id="linear-gradient-8" y1="0.001" y2="0.992" xlink:href="#linear-gradient-6"/>
    <linearGradient id="linear-gradient-9" x1="-0.96" y1="0.219" x2="1.733" y2="0.829" gradientUnits="objectBoundingBox">
      <stop offset="0" stop-color="#fff"/>
      <stop offset="0.226" stop-color="#fbfbfb"/>
      <stop offset="0.46" stop-color="#eee"/>
      <stop offset="0.698" stop-color="#dadada"/>
      <stop offset="0.937" stop-color="#bdbdbd"/>
      <stop offset="1" stop-color="#b4b4b4"/>
    </linearGradient>
    <linearGradient id="linear-gradient-10" x1="0.499" y1="0" x2="0.499" y2="1.004" xlink:href="#linear-gradient-5"/>
    <linearGradient id="linear-gradient-11" x1="-0.63" y1="0.242" x2="1.856" y2="0.806" xlink:href="#linear-gradient-9"/>
    <linearGradient id="linear-gradient-12" y1="0.5" x2="1" y2="0.5" gradientUnits="objectBoundingBox">
      <stop offset="0" stop-color="#464646"/>
      <stop offset="0.064" stop-color="#665136"/>
      <stop offset="0.153" stop-color="#8b5d22"/>
      <stop offset="0.242" stop-color="#a86713"/>
      <stop offset="0.33" stop-color="#bc6d09"/>
      <stop offset="0.417" stop-color="#c97202"/>
      <stop offset="0.5" stop-color="#cd7300"/>
      <stop offset="0.584" stop-color="#c97202"/>
      <stop offset="0.67" stop-color="#bc6d09"/>
      <stop offset="0.758" stop-color="#a86713"/>
      <stop offset="0.847" stop-color="#8b5d22"/>
      <stop offset="0.936" stop-color="#665136"/>
      <stop offset="1" stop-color="#464646"/>
    </linearGradient>
    <linearGradient id="linear-gradient-13" x1="0.5" y1="0.998" x2="0.5" y2="0.003" gradientUnits="objectBoundingBox">
      <stop offset="0" stop-color="#cd7300"/>
      <stop offset="1" stop-color="#fab45a"/>
    </linearGradient>
  </defs>
  <g id="group-667" transform="translate(-8978 -21458)">
    <circle id="ellipse" class="cls-1" cx="45" cy="45" r="45" transform="translate(20 20)"/>
    <g id="group">
      <path id="path-2" data-name="path" class="cls-2" d="M63.5,29.6l-.1,49.9h3V29.6"/>
    </g>
    <ellipse id="ellipse-2" data-name="ellipse" class="cls-3" cx="27.2" cy="9.2" rx="27.2" ry="9.2" transform="translate(37.8 91.6)"/>
    <g id="group-2" data-name="group">
      <g id="group-3" data-name="group" class="cls-4">
        <path id="path-3" data-name="path" class="cls-5" d="M68.9,92.1l-1.2,2.7-2.7.6-2.7-.6-1.2-2.7V89.2h7.8Z"/>
        <path id="path-4" data-name="path" class="cls-6" d="M68.9,91.4,65,102.3v7.9H81.8V101C81.8,96.1,77.5,95.2,68.9,91.4Z"/>
        <path id="path-5" data-name="path" class="cls-7" d="M68.9,91.4s0,3.2-3.9,3.2-3.9-3.2-3.9-3.2L65,102.3Z"/>
        <path id="path-6" data-name="path" class="cls-8" d="M72.1,77.8V81l-.6.6c0,3.2-1.9,7.8-6.5,7.8s-6.5-4.5-6.5-7.8l-.6-.6V77.8Z"/>
        <path id="path-7" data-name="path" class="cls-9" d="M72.8,75.9a7.8,7.8,0,1,0-15.6,0l-1.3.6c0,1.8,4.1,2.7,9.1,2.7s9.1-.9,9.1-2.7"/>
        <path id="path-8" data-name="path" class="cls-10" d="M72.1,79.8v1.3l-.6.6c0,3.2-1.9,7.8-6.5,7.8s-6.5-4.5-6.5-7.8l-.6-.6V79.8"/>
        <path id="path-9" data-name="path" class="cls-10" d="M74.1,76.5c0,1.8-4.1,2.6-9.1,2.6s-9.1-.8-9.1-2.6"/>
        <path id="path-10" data-name="path" class="cls-10" d="M57.2,75.9a7.8,7.8,0,1,1,15.6,0"/>
        <g id="group-4" data-name="group">
          <path id="path-11" data-name="path" class="cls-11" d="M68.2,68.8"/>
        </g>
        <path id="path-12" data-name="path" class="cls-12" d="M71.5,93.1v17.2h3.9V94.8Z"/>
        <path id="path-13" data-name="path" class="cls-13" d="M61.1,91.4,65,102.3v7.9H48.2V101C48.2,96.1,52.5,95.2,61.1,91.4Z"/>
        <path id="path-14" data-name="path" class="cls-14" d="M58.5,93.1v17.2H54.6V94.8Z"/>
        <path id="path-15" data-name="path" class="cls-10" d="M68.9,88.2v3.2L74.7,94c3.8,1.7,7.1,3.2,7.1,7.1v9.2"/>
        <path id="path-16" data-name="path" class="cls-10" d="M68.9,91.4l-3.9,11-3.9-11"/>
        <line id="line" class="cls-10" y2="8" transform="translate(65 102.3)"/>
        <path id="path-17" data-name="path" class="cls-10" d="M61.1,88.2v3.2L55.3,94c-3.8,1.7-7.1,3.2-7.1,7.1v9.2"/>
      </g>
    </g>
    <g id="group-5" data-name="group">
      <path id="path-18" data-name="path" class="cls-15" d="M64.9,28.3l31.1,80H92.2L65,38.5,37.8,108.3H34l31.1-80Z"/>
    </g>
    <circle id="ellipse-3" data-name="ellipse" class="cls-16" cx="7.5" cy="7.5" r="7.5" transform="translate(57.5 26.7)"/>
  </g>
</svg>
