<svg id="Group_8075" data-name="Group 8075" xmlns="http://www.w3.org/2000/svg" xmlns:xlink="http://www.w3.org/1999/xlink" viewBox="-8568 -21438 90 90">
  <defs>
    <style>
      .cls-1 {
        fill: url(#linear-gradient);
      }

      .cls-2, .cls-3 {
        fill: none;
      }

      .cls-10, .cls-2, .cls-4, .cls-5, .cls-6 {
        stroke: #464646;
        stroke-width: 1.5px;
      }

      .cls-10, .cls-2, .cls-3, .cls-4, .cls-5, .cls-6 {
        stroke-linecap: round;
        stroke-linejoin: round;
        stroke-miterlimit: 10;
      }

      .cls-3 {
        stroke: #4d5152;
        stroke-width: 2px;
      }

      .cls-4 {
        fill: url(#linear-gradient-2);
      }

      .cls-5 {
        fill: url(#linear-gradient-3);
      }

      .cls-6 {
        fill: #fff;
      }

      .cls-7 {
        fill: #464646;
      }

      .cls-8 {
        clip-path: url(#clip-path);
      }

      .cls-9 {
        fill: url(#linear-gradient-4);
      }

      .cls-10 {
        fill: url(#linear-gradient-5);
      }
    </style>
    <linearGradient id="linear-gradient" x1="0.5" y1="1" x2="0.5" gradientUnits="objectBoundingBox">
      <stop offset="0" stop-color="#cd7300"/>
      <stop offset="1" stop-color="#f29105"/>
    </linearGradient>
    <linearGradient id="linear-gradient-2" x1="0.502" y1="0.996" x2="0.502" y2="-0.004" gradientUnits="objectBoundingBox">
      <stop offset="0" stop-color="#fff"/>
      <stop offset="0.226" stop-color="#fbfbfb"/>
      <stop offset="0.46" stop-color="#eee"/>
      <stop offset="0.698" stop-color="#dadada"/>
      <stop offset="0.937" stop-color="#bdbdbd"/>
      <stop offset="1" stop-color="#b4b4b4"/>
    </linearGradient>
    <linearGradient id="linear-gradient-3" x1="0.501" y1="-0.003" x2="0.501" y2="0.997" gradientUnits="objectBoundingBox">
      <stop offset="0" stop-color="#e15aa0"/>
      <stop offset="1" stop-color="#be005a"/>
    </linearGradient>
    <clipPath id="clip-path">
      <circle id="ellipse" cx="45" cy="45" r="45" transform="translate(20 20)"/>
    </clipPath>
    <linearGradient id="linear-gradient-4" x1="0.503" x2="0.503" y2="1" gradientUnits="objectBoundingBox">
      <stop offset="0" stop-color="#fff"/>
      <stop offset="0.336" stop-color="#fcfcfc"/>
      <stop offset="0.538" stop-color="#f4f4f4"/>
      <stop offset="0.704" stop-color="#e6e6e6"/>
      <stop offset="0.851" stop-color="#d2d2d2"/>
      <stop offset="0.984" stop-color="#b8b8b8"/>
      <stop offset="1" stop-color="#b4b4b4"/>
    </linearGradient>
    <linearGradient id="linear-gradient-5" x1="0.501" y1="1" x2="0.501" gradientUnits="objectBoundingBox">
      <stop offset="0" stop-color="#be005a"/>
      <stop offset="0.183" stop-color="#c10961"/>
      <stop offset="0.48" stop-color="#cb2174"/>
      <stop offset="0.854" stop-color="#da4993"/>
      <stop offset="1" stop-color="#e15aa0"/>
    </linearGradient>
  </defs>
  <circle id="ellipse-2" data-name="ellipse" class="cls-1" cx="45" cy="45" r="45" transform="translate(-8568 -21438)"/>
  <line id="line" class="cls-2" x2="62" transform="translate(-8554 -21348.801)"/>
  <path id="path" class="cls-3" d="M78.1,89" transform="translate(-8588 -21458)"/>
  <g id="group" transform="translate(-8588 -21458)">
    <path id="path-2" data-name="path" class="cls-4" d="M71.1,100V95h-12v5"/>
    <path id="path-3" data-name="path" class="cls-5" d="M76.1,95h-22c0-6,5-8,11-8S76.1,89,76.1,95Z"/>
    <g id="group-2" data-name="group">
      <rect id="rectangle" class="cls-6" width="22.5" height="10" transform="translate(53.9 99)"/>
      <rect id="rectangle-2" data-name="rectangle" class="cls-7" width="22.5" height="5" transform="translate(53.9 104)"/>
    </g>
  </g>
  <line id="line-2" data-name="line" class="cls-2" y1="8" transform="translate(-8522.9 -21386)"/>
  <line id="line-3" data-name="line" class="cls-2" x1="5.7" y1="5.6" transform="translate(-8537 -21382)"/>
  <line id="line-4" data-name="line" class="cls-2" y1="5.6" x2="5.7" transform="translate(-8514.5 -21382)"/>
  <g id="group-3" data-name="group" transform="translate(-8588 -21458)">
    <path id="path-4" data-name="path" class="cls-2" d="M65,27V39l-3.6-3.8"/>
    <line id="line-5" data-name="line" class="cls-2" y1="3.8" x2="3.6" transform="translate(65 35.2)"/>
  </g>
  <g id="group-4" data-name="group" transform="translate(-8588 -21458)">
    <g id="group-5" data-name="group" class="cls-8">
      <path id="path-5" data-name="path" class="cls-9" d="M39.4,63c.7,0,14.9-3.7,14.9-3.7l2.6-2.9h0A3.076,3.076,0,0,0,55.3,59a2.946,2.946,0,0,0,3,3h9l11,4h9V50h-5s-16-3-19-3-26,11-26,11a2.117,2.117,0,0,0-1,2A3.163,3.163,0,0,0,39.4,63Z"/>
      <path id="path-6" data-name="path" class="cls-2" d="M87.4,66h-9l-11-4h-9a3,3,0,1,1,0-6h11c1.7,0,3,0,3,2"/>
      <path id="path-7" data-name="path" class="cls-2" d="M55.4,59s-15,4-16,4a2.946,2.946,0,0,1-3-3,2.117,2.117,0,0,1,1-2s23-11,26-11,19,3,19,3h5"/>
      <path id="path-8" data-name="path" class="cls-10" d="M114.8,68H87.4V48h20.2"/>
    </g>
  </g>
</svg>
