<svg xmlns="http://www.w3.org/2000/svg" xmlns:xlink="http://www.w3.org/1999/xlink" viewBox="-7983 -21438 90 90">
  <defs>
    <style>
      .cls-1 {
        fill: url(#linear-gradient);
      }

      .cls-2 {
        fill: none;
      }

      .cls-10, .cls-12, .cls-14, .cls-2, .cls-6, .cls-8 {
        stroke: #464646;
        stroke-linecap: round;
        stroke-linejoin: round;
        stroke-miterlimit: 10;
        stroke-width: 1.5px;
      }

      .cls-3 {
        fill: url(#linear-gradient-2);
      }

      .cls-4 {
        fill: url(#linear-gradient-3);
      }

      .cls-5 {
        fill: url(#linear-gradient-4);
      }

      .cls-6 {
        fill: url(#linear-gradient-5);
      }

      .cls-7 {
        fill: #787878;
      }

      .cls-8 {
        fill: url(#linear-gradient-6);
      }

      .cls-9 {
        fill: #fff;
      }

      .cls-10 {
        fill: url(#linear-gradient-7);
      }

      .cls-11 {
        fill: url(#linear-gradient-8);
      }

      .cls-12 {
        fill: url(#linear-gradient-9);
      }

      .cls-13 {
        fill: #464646;
      }

      .cls-14 {
        fill: url(#linear-gradient-10);
      }

      .cls-15 {
        fill: url(#linear-gradient-11);
      }
    </style>
    <linearGradient id="linear-gradient" x1="0.5" y1="1" x2="0.5" gradientUnits="objectBoundingBox">
      <stop offset="0" stop-color="#cd7300"/>
      <stop offset="1" stop-color="#f29105"/>
    </linearGradient>
    <linearGradient id="linear-gradient-2" x1="0.5" y1="0.999" x2="0.5" y2="-0.001" gradientUnits="objectBoundingBox">
      <stop offset="0" stop-color="#fab45a"/>
      <stop offset="0.5" stop-color="#f29105"/>
      <stop offset="1" stop-color="#cd7300"/>
    </linearGradient>
    <linearGradient id="linear-gradient-3" x1="0.5" y1="0.999" x2="0.5" y2="0.001" gradientUnits="objectBoundingBox">
      <stop offset="0" stop-color="#464646"/>
      <stop offset="1" stop-color="#787878"/>
    </linearGradient>
    <linearGradient id="linear-gradient-4" x1="0.5" y1="0.001" x2="0.5" y2="1.014" gradientUnits="objectBoundingBox">
      <stop offset="0" stop-color="#b4b4b4"/>
      <stop offset="0.254" stop-color="#b0b0b0"/>
      <stop offset="0.516" stop-color="#a3a3a3"/>
      <stop offset="0.782" stop-color="#8f8f8f"/>
      <stop offset="1" stop-color="#787878"/>
    </linearGradient>
    <linearGradient id="linear-gradient-5" x1="-0.001" y1="0.5" x2="0.997" y2="0.5" gradientUnits="objectBoundingBox">
      <stop offset="0" stop-color="#0096c8"/>
      <stop offset="0.17" stop-color="#1daad6"/>
      <stop offset="0.382" stop-color="#3abde3"/>
      <stop offset="0.592" stop-color="#4ecced"/>
      <stop offset="0.8" stop-color="#5bd4f3"/>
      <stop offset="1" stop-color="#5fd7f5"/>
    </linearGradient>
    <linearGradient id="linear-gradient-6" x1="0.5" y1="0.998" x2="0.5" gradientUnits="objectBoundingBox">
      <stop offset="0" stop-color="#464646"/>
      <stop offset="0.141" stop-color="#535353"/>
      <stop offset="0.433" stop-color="#676767"/>
      <stop offset="0.721" stop-color="#747474"/>
      <stop offset="1" stop-color="#787878"/>
    </linearGradient>
    <linearGradient id="linear-gradient-7" x1="0.501" y1="0.999" x2="0.501" y2="-0.004" gradientUnits="objectBoundingBox">
      <stop offset="0" stop-color="#cd7300"/>
      <stop offset="0.338" stop-color="#e18403"/>
      <stop offset="0.675" stop-color="#ee8e04"/>
      <stop offset="1" stop-color="#f29105"/>
    </linearGradient>
    <linearGradient id="linear-gradient-8" x1="0.502" y1="0.989" x2="0.502" gradientUnits="objectBoundingBox">
      <stop offset="0" stop-color="#fab45a"/>
      <stop offset="0.121" stop-color="#f8ac47"/>
      <stop offset="0.345" stop-color="#f6a02a"/>
      <stop offset="0.568" stop-color="#f49816"/>
      <stop offset="0.788" stop-color="#f29309"/>
      <stop offset="1" stop-color="#f29105"/>
    </linearGradient>
    <linearGradient id="linear-gradient-9" x1="0.502" y1="0.998" x2="0.502" y2="0" xlink:href="#linear-gradient-6"/>
    <linearGradient id="linear-gradient-10" x1="0.503" y1="0.999" x2="0.503" y2="-0.004" xlink:href="#linear-gradient-7"/>
    <linearGradient id="linear-gradient-11" x1="0.507" y1="0.989" x2="0.507" y2="0" xlink:href="#linear-gradient-8"/>
  </defs>
  <g id="group-669" transform="translate(-8003 -21458)">
    <g id="group">
      <circle id="ellipse" class="cls-1" cx="45" cy="45" r="45" transform="translate(20 20)"/>
      <line id="line" class="cls-2" x2="62" transform="translate(34 109.2)"/>
    </g>
    <g id="group-2" data-name="group">
      <g id="group-3" data-name="group">
        <path id="path" class="cls-3" d="M47.6,95h61.6V90.8l-2-1.5V83.6l-5.6-3.9L94.9,59.5H82.5L71.8,89.3H47.6"/>
        <path id="path-2" data-name="path" class="cls-2" d="M47.6,95h61.6V90.8l-2-1.5V83.6l-5.7-3.9L94.8,59.5H82.5L71.8,89.3H36.9"/>
        <path id="path-3" data-name="path" class="cls-4" d="M99.9,59.5H82.5L71.8,89.3H37.9L20.8,72.2V62.3H66.4l8.1-6.5H99.9"/>
        <path id="path-4" data-name="path" class="cls-5" d="M20.8,65.9H60l6.4-3.6H20.8Z"/>
        <path id="path-5" data-name="path" class="cls-2" d="M99.9,55.8H74.5l-8.1,6.5H20.8v9.9L37.9,89.3H71.8L82.5,59.5H99.9Z"/>
        <line id="line-2" data-name="line" class="cls-2" y1="14.2" x2="5.4" transform="translate(59.7 75.1)"/>
        <line id="line-3" data-name="line" class="cls-2" y1="14.2" x2="5.4" transform="translate(66.4 75.1)"/>
        <line id="line-4" data-name="line" class="cls-2" y1="14.2" x2="5.4" transform="translate(53 75.1)"/>
        <line id="line-5" data-name="line" class="cls-2" y1="14.2" x2="5.3" transform="translate(46.3 75.1)"/>
        <line id="line-6" data-name="line" class="cls-2" y1="14.2" x2="5.3" transform="translate(39.6 75.1)"/>
        <line id="line-7" data-name="line" class="cls-2" y1="14.2" x2="5.4" transform="translate(32.8 75.1)"/>
        <path id="path-6" data-name="path" class="cls-6" d="M82.5,75.5l-.9-2.2,3.7-10.4h7.6l4.2,12.6Z"/>
        <g id="group-4" data-name="group">
          <ellipse id="ellipse-2" data-name="ellipse" class="cls-7" cx="13.3" cy="14.1" rx="13.3" ry="14.1" transform="translate(75.9 79.6)"/>
          <ellipse id="ellipse-3" data-name="ellipse" class="cls-8" cx="13.3" cy="14.1" rx="13.3" ry="14.1" transform="translate(75.9 79.6)"/>
          <ellipse id="ellipse-4" data-name="ellipse" class="cls-9" cx="7.4" cy="7.8" rx="7.4" ry="7.8" transform="translate(81.8 85.9)"/>
          <ellipse id="ellipse-5" data-name="ellipse" class="cls-10" cx="7.4" cy="7.8" rx="7.4" ry="7.8" transform="translate(81.8 85.9)"/>
          <ellipse id="ellipse-6" data-name="ellipse" class="cls-11" cx="3.4" cy="3.6" rx="3.4" ry="3.6" transform="translate(85.8 90.1)"/>
        </g>
        <g id="group-5" data-name="group">
          <ellipse id="ellipse-7" data-name="ellipse" class="cls-7" cx="13.3" cy="14.1" rx="13.3" ry="14.1" transform="translate(23.4 79.6)"/>
          <ellipse id="ellipse-8" data-name="ellipse" class="cls-12" cx="13.3" cy="14.1" rx="13.3" ry="14.1" transform="translate(23.4 79.6)"/>
          <ellipse id="ellipse-9" data-name="ellipse" class="cls-13" cx="7.4" cy="7.8" rx="7.4" ry="7.8" transform="translate(29.3 85.9)"/>
          <ellipse id="ellipse-10" data-name="ellipse" class="cls-14" cx="7.4" cy="7.8" rx="7.4" ry="7.8" transform="translate(29.3 85.9)"/>
          <ellipse id="ellipse-11" data-name="ellipse" class="cls-15" cx="3.4" cy="3.6" rx="3.4" ry="3.6" transform="translate(33.3 90.1)"/>
        </g>
        <path id="path-7" data-name="path" class="cls-2" d="M20.8,65.9H60l6.4-3.6"/>
      </g>
    </g>
  </g>
</svg>
