<svg xmlns="http://www.w3.org/2000/svg" xmlns:xlink="http://www.w3.org/1999/xlink" viewBox="-8373 -21203 90 90">
  <defs>
    <style>
      .cls-1 {
        fill: url(#linear-gradient);
      }

      .cls-10, .cls-11, .cls-2, .cls-5, .cls-6 {
        fill: none;
      }

      .cls-11, .cls-2, .cls-3, .cls-4, .cls-6, .cls-7, .cls-8 {
        stroke: #464646;
      }

      .cls-10, .cls-11, .cls-2, .cls-3, .cls-4, .cls-5, .cls-6, .cls-7, .cls-8 {
        stroke-linecap: round;
        stroke-miterlimit: 10;
      }

      .cls-2, .cls-3, .cls-7 {
        stroke-linejoin: round;
      }

      .cls-2, .cls-3, .cls-4, .cls-5, .cls-6, .cls-7, .cls-8 {
        stroke-width: 1.5px;
      }

      .cls-3 {
        fill: #fff;
      }

      .cls-4 {
        fill: #787878;
      }

      .cls-10, .cls-5 {
        stroke: #da0260;
      }

      .cls-7 {
        fill: url(#linear-gradient-2);
      }

      .cls-8 {
        fill: #b4b4b4;
      }

      .cls-9 {
        clip-path: url(#clip-path);
      }

      .cls-10, .cls-11 {
        stroke-width: 2px;
      }
    </style>
    <linearGradient id="linear-gradient" x1="0.5" y1="1" x2="0.5" gradientUnits="objectBoundingBox">
      <stop offset="0" stop-color="#cd7300"/>
      <stop offset="1" stop-color="#f29105"/>
    </linearGradient>
    <linearGradient id="linear-gradient-2" y1="0.497" x2="0.999" y2="0.497" gradientUnits="objectBoundingBox">
      <stop offset="0" stop-color="#0096c8"/>
      <stop offset="0.17" stop-color="#1daad6"/>
      <stop offset="0.382" stop-color="#3abde3"/>
      <stop offset="0.592" stop-color="#4ecced"/>
      <stop offset="0.8" stop-color="#5bd4f3"/>
      <stop offset="1" stop-color="#5fd7f5"/>
    </linearGradient>
    <clipPath id="clip-path">
      <circle id="ellipse" cx="45" cy="45" r="45" transform="translate(20.7 20)"/>
    </clipPath>
  </defs>
  <g id="group-664" transform="translate(-8393.7 -21223)">
    <g id="group">
      <circle id="ellipse-2" data-name="ellipse" class="cls-1" cx="45" cy="45" r="45" transform="translate(20.7 20)"/>
      <line id="line" class="cls-2" x2="60" transform="translate(35.8 109.241)"/>
    </g>
    <g id="group-2" data-name="group" transform="translate(0 0.751)">
      <rect id="rectangle" class="cls-3" width="32.8" height="12.6" transform="translate(33.7 87.6)"/>
      <path id="path" class="cls-3" d="M97.7,100.2H66.5V75H78l6.9,9.9,12.8,2.7Z"/>
      <ellipse id="ellipse-3" data-name="ellipse" class="cls-4" cx="6.7" cy="6.8" rx="6.7" ry="6.8" transform="translate(79.7 93.4)"/>
      <line id="line-2" data-name="line" class="cls-5" x2="3.1" transform="translate(94.6 91.8)"/>
      <line id="line-3" data-name="line" class="cls-5" x2="3.1" transform="translate(33.7 91.8)"/>
      <line id="line-4" data-name="line" class="cls-6" x2="31.1" transform="translate(49.9 96.1)"/>
      <path id="path-2" data-name="path" class="cls-7" d="M70.6,79h5.2l3.9,5.9H70.6Z"/>
      <circle id="ellipse-4" data-name="ellipse" class="cls-8" cx="1.6" cy="1.6" r="1.6" transform="translate(84.8 98.6)"/>
      <ellipse id="ellipse-5" data-name="ellipse" class="cls-4" cx="6.7" cy="6.8" rx="6.7" ry="6.8" transform="translate(37.8 93.4)"/>
      <circle id="ellipse-6" data-name="ellipse" class="cls-8" cx="1.6" cy="1.6" r="1.6" transform="translate(42.9 98.6)"/>
      <line id="line-5" data-name="line" class="cls-6" y2="8.6" transform="translate(33.7 89)"/>
      <line id="line-6" data-name="line" class="cls-6" y2="8.6" transform="translate(97.7 89)"/>
    </g>
    <g id="group-3" data-name="group">
      <g id="group-4" data-name="group" class="cls-9">
        <g id="group-5" data-name="group">
          <path id="path-3" data-name="path" class="cls-10" d="M33.7,43.8"/>
          <path id="path-4" data-name="path" class="cls-10" d="M97.7,43.8"/>
          <path id="path-5" data-name="path" class="cls-11" d="M50.4,48.2"/>
          <path id="path-6" data-name="path" class="cls-11" d="M81.5,48.2"/>
          <path id="path-7" data-name="path" class="cls-11" d="M97.7,49.6"/>
          <path id="path-8" data-name="path" class="cls-11" d="M97.7,41"/>
          <path id="path-9" data-name="path" class="cls-11" d="M33.7,49.6"/>
          <path id="path-10" data-name="path" class="cls-11" d="M33.7,41"/>
        </g>
      </g>
    </g>
  </g>
</svg>
