<svg xmlns="http://www.w3.org/2000/svg" xmlns:xlink="http://www.w3.org/1999/xlink" viewBox="-8178 -21203 90 90.75">
  <defs>
    <style>
      .cls-1 {
        fill: url(#linear-gradient);
      }

      .cls-10, .cls-11, .cls-13, .cls-2, .cls-3, .cls-4, .cls-5, .cls-6, .cls-7, .cls-8, .cls-9 {
        stroke: #464646;
        stroke-miterlimit: 10;
      }

      .cls-13, .cls-2 {
        stroke-linejoin: round;
      }

      .cls-11, .cls-13, .cls-2, .cls-3, .cls-4, .cls-5, .cls-6, .cls-7, .cls-8, .cls-9 {
        stroke-width: 1.5px;
      }

      .cls-2 {
        fill: url(#linear-gradient-2);
      }

      .cls-3 {
        fill: url(#linear-gradient-3);
      }

      .cls-4 {
        fill: url(#linear-gradient-4);
      }

      .cls-5 {
        fill: url(#linear-gradient-5);
      }

      .cls-6 {
        fill: url(#linear-gradient-6);
      }

      .cls-7 {
        fill: url(#linear-gradient-7);
      }

      .cls-8 {
        fill: url(#linear-gradient-8);
      }

      .cls-9 {
        fill: url(#linear-gradient-10);
      }

      .cls-10 {
        stroke-width: 1.533px;
        fill: url(#linear-gradient-11);
      }

      .cls-11 {
        fill: url(#linear-gradient-12);
      }

      .cls-12 {
        fill: #fff;
      }

      .cls-13 {
        fill: none;
        stroke-linecap: round;
      }
    </style>
    <linearGradient id="linear-gradient" x1="0.5" y1="1" x2="0.5" gradientUnits="objectBoundingBox">
      <stop offset="0" stop-color="#cd7300"/>
      <stop offset="1" stop-color="#f29105"/>
    </linearGradient>
    <linearGradient id="linear-gradient-2" x1="0.499" y1="1" x2="0.499" y2="0.001" gradientUnits="objectBoundingBox">
      <stop offset="0" stop-color="#787878"/>
      <stop offset="0.141" stop-color="#6b6b6b"/>
      <stop offset="0.433" stop-color="#575757"/>
      <stop offset="0.721" stop-color="#4a4a4a"/>
      <stop offset="1" stop-color="#464646"/>
    </linearGradient>
    <linearGradient id="linear-gradient-3" x1="0.335" y1="-0.018" x2="0.824" y2="0.98" gradientUnits="objectBoundingBox">
      <stop offset="0" stop-color="#b4b4b4"/>
      <stop offset="0.218" stop-color="#9d9d9d"/>
      <stop offset="0.484" stop-color="#898989"/>
      <stop offset="0.747" stop-color="#7c7c7c"/>
      <stop offset="1" stop-color="#787878"/>
    </linearGradient>
    <linearGradient id="linear-gradient-4" x1="-5.965" y1="-20.392" x2="-5.571" y2="-19.486" xlink:href="#linear-gradient-3"/>
    <linearGradient id="linear-gradient-5" x1="-8.565" y1="-14.639" x2="-8.093" y2="-13.928" xlink:href="#linear-gradient-2"/>
    <linearGradient id="linear-gradient-6" x1="-8.126" y1="-21.345" x2="-7.462" y2="-20.513" xlink:href="#linear-gradient-2"/>
    <linearGradient id="linear-gradient-7" x1="0.623" y1="5.981" x2="1.243" y2="6.819" xlink:href="#linear-gradient-2"/>
    <linearGradient id="linear-gradient-8" x1="0.22" y1="0.117" x2="0.83" y2="1.013" xlink:href="#linear-gradient-2"/>
    <linearGradient id="linear-gradient-10" x1="0.247" y1="0.098" x2="0.739" y2="0.903" xlink:href="#linear-gradient-3"/>
    <linearGradient id="linear-gradient-11" x1="0.283" y1="0.061" x2="0.773" y2="0.907" xlink:href="#linear-gradient-3"/>
    <linearGradient id="linear-gradient-12" x1="0.284" y1="0.065" x2="0.774" y2="0.907" xlink:href="#linear-gradient-3"/>
  </defs>
  <g id="group-679" transform="translate(-8198 -21223)">
    <circle id="ellipse" class="cls-1" cx="45" cy="45" r="45" transform="translate(20 20)"/>
    <g id="group">
      <path id="path" class="cls-2" d="M42,29.2c1.7-.7,4.7-.5,7.3,0,3.1.6,9.3,3.2,11.6,5.8,2.6,3.1,5.1,19.2,7.2,22.4C77.4,71.3,88,73.8,90.7,84.8c.9,3.6,1.5,21.8,1,25.2H22c-2.3-6.8.1-20.4.1-27.1,0-13.1,6.4-24,6.2-31.5C28.2,43.8,36.9,31.1,42,29.2Z"/>
      <path id="path-2" data-name="path" class="cls-3" d="M52,26a5.656,5.656,0,0,0-3.7,2.1c-.8,1.1.2,1.9,3.4,4.5s4.6,2.7,5.7,1.1a6.547,6.547,0,0,0,.8-5.1C57.8,26.2,53.7,25.9,52,26Z"/>
      <path id="path-3" data-name="path" class="cls-4" d="M76.7,49.6a5.732,5.732,0,0,0,2.8-3.1c.3-1.3-.8-1.7-4.6-3.1s-5.2-1-5.7.8a6.28,6.28,0,0,0,.9,5C71.3,51.4,75.2,50.3,76.7,49.6Z"/>
      <path id="path-4" data-name="path" class="cls-5" d="M74.1,38.9a5.445,5.445,0,0,0,4.2.3c1.2-.5.9-1.7-.3-5.6s-2.3-4.7-4.1-4a5.916,5.916,0,0,0-3.4,3.7C69.4,35.6,72.6,38.1,74.1,38.9Z"/>
      <path id="path-5" data-name="path" class="cls-6" d="M71.5,59.4a4.069,4.069,0,0,0,2.2,1.3c.8,0,.9-.7,1.3-3.2.3-2.5-.1-3.3-1.3-3.3a4.253,4.253,0,0,0-2.9,1.2C69.8,56.4,70.9,58.6,71.5,59.4Z"/>
      <path id="path-6" data-name="path" class="cls-7" d="M81.2,43.6A2.539,2.539,0,0,0,82.5,45c.6.2.8-.3,1.7-2,.8-1.7.7-2.4-.1-2.7a2.9,2.9,0,0,0-2.4.2C80.6,41,80.9,42.8,81.2,43.6Z"/>
      <path id="path-7" data-name="path" class="cls-8" d="M63.5,34.3a3.8,3.8,0,0,0,2.6.3c.8-.3.6-1-.1-3.5-.7-2.4-1.3-3-2.4-2.6a3.682,3.682,0,0,0-2.2,2.2C60.7,32.2,62.6,33.8,63.5,34.3Z"/>
      <path id="path-8" data-name="path" class="cls-8" d="M63.5,34.3a3.8,3.8,0,0,0,2.6.3c.8-.3.6-1-.1-3.5-.7-2.4-1.3-3-2.4-2.6a3.682,3.682,0,0,0-2.2,2.2C60.7,32.2,62.6,33.8,63.5,34.3Z" transform="matrix(0.695, -0.719, 0.719, 0.695, -4.177, 75.625)"/>
      <path id="path-9" data-name="path" class="cls-9" d="M52.7,41.1c.1.6,1,1.3,1.5,1.5s1.4-.3,1.7-.5a2.9,2.9,0,0,0,.5-1.8,3.623,3.623,0,0,0-1.3-1.5c-.5-.2-.8-.1-1.4.3A2.459,2.459,0,0,0,52.7,41.1Z"/>
      <path id="path-10" data-name="path" class="cls-10" d="M60.5,40.7a3.87,3.87,0,0,0,.1,3c.4.6,1.8.9,2.3,1a3.9,3.9,0,0,0,2.3-1.5,6.492,6.492,0,0,0,.1-2.8c-.3-.7-.7-.8-1.8-.9A3.917,3.917,0,0,0,60.5,40.7Z"/>
      <path id="path-11" data-name="path" class="cls-11" d="M79.2,53.9a3.87,3.87,0,0,0,.1,3c.4.6,1.8.9,2.3,1a3.9,3.9,0,0,0,2.3-1.5,6.492,6.492,0,0,0,.1-2.8c-.3-.7-.7-.8-1.8-.9A3.6,3.6,0,0,0,79.2,53.9Z"/>
    </g>
    <g id="group-2" data-name="group">
      <g id="group-3" data-name="group">
        <g id="group-4" data-name="group">
          <path id="path-12" data-name="path" class="cls-12" d="M93,74h7l6-6,3,3-7,7-9,1-2,7,10,5,5,11-4,2L96,94l-7.7-1.9L86,100l-11,9-3-3,8-8,3-9,1-11.3L79,79l-6,6-3-3,7-7,11-3Z"/>
          <circle id="ellipse-2" data-name="ellipse" class="cls-12" cx="4" cy="4" r="4" transform="translate(88 63)"/>
          <circle id="ellipse-3" data-name="ellipse" class="cls-13" cx="4" cy="4" r="4" transform="translate(88 63)"/>
          <path id="path-13" data-name="path" class="cls-13" d="M87,77l-8,2-6,6-3-3,7-7,11-3"/>
          <path id="path-14" data-name="path" class="cls-13" d="M88.3,92,96,94l6,10,4-2-5-11L91,86l2-7,9-1,7-7-3-3-6,6H93"/>
          <path id="path-15" data-name="path" class="cls-13" d="M89,90l-3,10-11,9-3-3,8-8,3-9,1-11.3"/>
        </g>
      </g>
    </g>
  </g>
</svg>
