<svg xmlns="http://www.w3.org/2000/svg" xmlns:xlink="http://www.w3.org/1999/xlink" viewBox="-8568 -20968 90 90">
  <defs>
    <style>
      .cls-1 {
        fill: url(#linear-gradient);
      }

      .cls-2 {
        clip-path: url(#clip-path);
      }

      .cls-10, .cls-11, .cls-12, .cls-13, .cls-14, .cls-15, .cls-16, .cls-17, .cls-18, .cls-19, .cls-3, .cls-4, .cls-5, .cls-6, .cls-7, .cls-8, .cls-9 {
        stroke: #464646;
        stroke-linejoin: round;
        stroke-miterlimit: 10;
      }

      .cls-10, .cls-14, .cls-15, .cls-16, .cls-17, .cls-18, .cls-19, .cls-3, .cls-4, .cls-5, .cls-6, .cls-7, .cls-8, .cls-9 {
        stroke-linecap: round;
      }

      .cls-11, .cls-12, .cls-13, .cls-14, .cls-15, .cls-16, .cls-17, .cls-18, .cls-19, .cls-3, .cls-4, .cls-5, .cls-6, .cls-7, .cls-8, .cls-9 {
        stroke-width: 1.5px;
      }

      .cls-3 {
        fill: url(#linear-gradient-2);
      }

      .cls-4 {
        fill: url(#linear-gradient-3);
      }

      .cls-5 {
        fill: url(#linear-gradient-4);
      }

      .cls-6 {
        fill: url(#linear-gradient-5);
      }

      .cls-7 {
        fill: url(#linear-gradient-6);
      }

      .cls-8 {
        fill: url(#linear-gradient-7);
      }

      .cls-9 {
        fill: #fff;
      }

      .cls-10, .cls-17 {
        fill: none;
      }

      .cls-10 {
        stroke-width: 1.443px;
      }

      .cls-11 {
        fill: url(#linear-gradient-8);
      }

      .cls-12 {
        fill: url(#linear-gradient-9);
      }

      .cls-13 {
        fill: url(#linear-gradient-10);
      }

      .cls-14 {
        fill: url(#radial-gradient);
      }

      .cls-15 {
        fill: #b4b4b4;
      }

      .cls-16 {
        fill: url(#linear-gradient-11);
      }

      .cls-18 {
        fill: url(#linear-gradient-12);
      }

      .cls-19 {
        fill: #787878;
      }
    </style>
    <linearGradient id="linear-gradient" x1="0.5" y1="1" x2="0.5" gradientUnits="objectBoundingBox">
      <stop offset="0" stop-color="#cd7300"/>
      <stop offset="1" stop-color="#f29105"/>
    </linearGradient>
    <clipPath id="clip-path">
      <circle id="ellipse" cx="45" cy="45" r="45"/>
    </clipPath>
    <linearGradient id="linear-gradient-2" x1="-0.338" y1="0.499" x2="0.663" y2="0.499" gradientUnits="objectBoundingBox">
      <stop offset="0" stop-color="#fff"/>
      <stop offset="0.477" stop-color="#fdfdfd"/>
      <stop offset="0.648" stop-color="#f6f6f6"/>
      <stop offset="0.771" stop-color="#ebebeb"/>
      <stop offset="0.869" stop-color="#dadada"/>
      <stop offset="0.953" stop-color="#c4c4c4"/>
      <stop offset="1" stop-color="#b4b4b4"/>
    </linearGradient>
    <linearGradient id="linear-gradient-3" x1="-10.256" y1="0.104" x2="-8.854" y2="0.836" gradientUnits="objectBoundingBox">
      <stop offset="0" stop-color="#b4b4b4"/>
      <stop offset="1" stop-color="#787878"/>
    </linearGradient>
    <linearGradient id="linear-gradient-4" x1="-5.437" y1="0.496" x2="-4.441" y2="0.496" gradientUnits="objectBoundingBox">
      <stop offset="0" stop-color="#787878"/>
      <stop offset="0.466" stop-color="#969696"/>
      <stop offset="1" stop-color="#b4b4b4"/>
    </linearGradient>
    <linearGradient id="linear-gradient-5" x1="0.114" y1="0.506" x2="1.115" y2="0.506" gradientUnits="objectBoundingBox">
      <stop offset="0" stop-color="#cd7300"/>
      <stop offset="0.167" stop-color="#c97202"/>
      <stop offset="0.34" stop-color="#bc6d09"/>
      <stop offset="0.516" stop-color="#a86713"/>
      <stop offset="0.694" stop-color="#8b5d22"/>
      <stop offset="0.872" stop-color="#665136"/>
      <stop offset="1" stop-color="#464646"/>
    </linearGradient>
    <linearGradient id="linear-gradient-6" x1="-0.079" y1="0.5" x2="0.917" y2="0.5" gradientUnits="objectBoundingBox">
      <stop offset="0" stop-color="#be005a"/>
      <stop offset="0.289" stop-color="#bd035b"/>
      <stop offset="0.462" stop-color="#b80b5d"/>
      <stop offset="0.605" stop-color="#af1960"/>
      <stop offset="0.732" stop-color="#a32d65"/>
      <stop offset="0.848" stop-color="#94486c"/>
      <stop offset="0.954" stop-color="#826874"/>
      <stop offset="1" stop-color="#787878"/>
    </linearGradient>
    <linearGradient id="linear-gradient-7" x1="2.298" y1="0.5" x2="3.297" y2="0.5" gradientUnits="objectBoundingBox">
      <stop offset="0" stop-color="#cd7300"/>
      <stop offset="0.7" stop-color="#fab45a"/>
      <stop offset="1" stop-color="#cd7300"/>
    </linearGradient>
    <linearGradient id="linear-gradient-8" x1="1.144" y1="0.997" x2="1.144" gradientUnits="objectBoundingBox">
      <stop offset="0" stop-color="#b4b4b4"/>
      <stop offset="0.023" stop-color="#b6b6b6"/>
      <stop offset="0.451" stop-color="#dedede"/>
      <stop offset="0.791" stop-color="#f6f6f6"/>
      <stop offset="1" stop-color="#fff"/>
    </linearGradient>
    <linearGradient id="linear-gradient-9" x1="-1.024" y1="0.994" x2="-1.024" y2="-0.003" xlink:href="#linear-gradient-8"/>
    <linearGradient id="linear-gradient-10" x1="-0.934" y1="1.003" x2="-0.934" y2="-0.004" xlink:href="#linear-gradient-8"/>
    <radialGradient id="radial-gradient" cx="31.307" cy="37.782" r="8.07" gradientUnits="userSpaceOnUse">
      <stop offset="0" stop-color="#787878"/>
      <stop offset="0.03" stop-color="#81776b"/>
      <stop offset="0.226" stop-color="#b7741e"/>
      <stop offset="0.316" stop-color="#cd7300"/>
      <stop offset="0.331" stop-color="#d98418"/>
      <stop offset="0.351" stop-color="#e59630"/>
      <stop offset="0.374" stop-color="#eea343"/>
      <stop offset="0.4" stop-color="#f5ad50"/>
      <stop offset="0.434" stop-color="#f9b258"/>
      <stop offset="0.5" stop-color="#fab45a"/>
      <stop offset="0.702" stop-color="#e99c38"/>
      <stop offset="1" stop-color="#cd7300"/>
    </radialGradient>
    <linearGradient id="linear-gradient-11" x1="-0.305" y1="0.497" x2="0.695" y2="0.497" gradientUnits="objectBoundingBox">
      <stop offset="0" stop-color="#f29105"/>
      <stop offset="0.5" stop-color="#cd7300"/>
      <stop offset="1" stop-color="#787878"/>
    </linearGradient>
    <linearGradient id="linear-gradient-12" x1="0.061" y1="0.498" x2="1.061" y2="0.498" xlink:href="#linear-gradient-4"/>
  </defs>
  <g id="group-721" transform="translate(-8568 -20968)">
    <circle id="ellipse-2" data-name="ellipse" class="cls-1" cx="45" cy="45" r="45"/>
    <g id="group-2" data-name="group">
      <g id="group-3" data-name="group" class="cls-2">
        <path id="path" class="cls-3" d="M34.5,22.2H62.4s-.6,5.1,0,6.7c.6,1.5,4.2,3.1,4.1,4.7,0,3.3-7.3,7.5-12.2,9-3.9,1.2-4.5,6.5-4.5,6.5L37,45.9s1.6-4.8,1.4-6.4c-.3-3.1-3.4-8.5-3.7-11.7C34.5,24.5,34.1,24.5,34.5,22.2Z"/>
        <path id="path-2" data-name="path" class="cls-4" d="M63.7,54.9c1.2-2.8.6-8.5.4-11.2l-2.6-.5s.1,7.8-.6,9.7"/>
        <path id="path-3" data-name="path" class="cls-5" d="M66.6,37.4l2,.4s1.2.1,1.5-.2c.4-.4,2.2-.7,1.4,1.4A28.665,28.665,0,0,1,68,46c-1,1.5-2.3.7-2.3-.4l-1-2-1.3-.5"/>
        <path id="path-4" data-name="path" class="cls-6" d="M52.8,32.9l-2.9,4.4H36.7l-1.5-4.4Z"/>
        <path id="path-5" data-name="path" class="cls-7" d="M49.8,49.1s3,.6,5,11,3.5,31.7,3.5,31.7l-24,.2-.6-44.5,3.2-1.6-1.8-4.6,19.1,4.5-.1,3.3H49.8Z"/>
        <path id="path-6" data-name="path" class="cls-8" d="M33.2,89.2H25.7a3.009,3.009,0,0,1-3-3V48.8a3.009,3.009,0,0,1,3-3h7.5a3.009,3.009,0,0,1,3,3V86.2A2.945,2.945,0,0,1,33.2,89.2Z"/>
        <rect id="rectangle" class="cls-9" width="13.5" height="2.8" transform="translate(36.229 54.012) rotate(180)"/>
        <rect id="rectangle-2" data-name="rectangle" class="cls-9" width="13.5" height="2.8" transform="translate(36.229 63.944) rotate(180)"/>
        <rect id="rectangle-3" data-name="rectangle" class="cls-9" width="13.5" height="2.8" transform="translate(36.229 73.877) rotate(180)"/>
        <rect id="rectangle-4" data-name="rectangle" class="cls-9" width="13.5" height="2.8" transform="translate(36.229 84.735) rotate(180)"/>
        <path id="path-7" data-name="path" class="cls-10" d="M51.1,50.1"/>
        <rect id="rectangle-5" data-name="rectangle" class="cls-11" width="10.6" height="6.9" transform="translate(36.3 64.2)"/>
        <path id="path-8" data-name="path" class="cls-12" d="M47.4,78h9.2L56,71.1H47.4"/>
        <path id="path-9" data-name="path" class="cls-13" d="M47.3,91.7H57.9l-.5-6.9H47.3"/>
        <path id="path-10" data-name="path" class="cls-14" d="M54.6,31.2s8.7-1.1,10.9,0c2.1,1.1,2.4,4,2,5.8s-3,8-6.4,8-9.3-3.4-10.2-4.9C49.9,38.5,47.8,32.3,54.6,31.2Z"/>
        <circle id="ellipse-3" data-name="ellipse" class="cls-15" cx="2.8" cy="2.8" r="2.8" transform="translate(55.8 35.7)"/>
        <path id="path-11" data-name="path" class="cls-16" d="M68.3,24.5H32.6S31.3,6.6,49.5,6.6C63.1,6.5,64.3,20,64.3,20l4,2.3Z"/>
        <path id="path-12" data-name="path" class="cls-17" d="M36.3,50.1a10.625,10.625,0,0,1,4.8-1c4.1,0,5.9,3.9,5.9,6.7V91.559"/>
        <path id="path-13" data-name="path" class="cls-18" d="M27.5,41.8S24.1,59.2,40.1,63.5,60.9,53,60.9,53l2.8,2S58.4,71.9,39.3,66.9,24.2,41,24.2,41s.5-3.6,3.5-3.6c3.2,0,3.9,4.4,3.9,4.4"/>
        <path id="path-14" data-name="path" class="cls-19" d="M31.6,41.7l-4.2.1v4h4.2Z"/>
      </g>
    </g>
  </g>
</svg>
